SystemC_Project/CSP/CSPControl.vcd
$date
     Sep 09, 2013       09:39:55
$end

$version
              SystemC 2.3.0-ASI --- Aug 19 2013 15:21:00
$end

$timescale
     1 ps
$end

$scope module SystemC $end
$var wire   32  aaa  i [31:0]  $end
$var wire    8  aab  MUX [7:0]  $end
$var wire    8  aac  Instruction [7:0]  $end
$var wire    8  aad  OFECou [7:0]  $end
$var wire    1  aae  C_out       $end
$var wire    1  aaf  Rst       $end
$var wire    1  aag  Clk       $end
$upscope $end
$enddefinitions  $end

$comment
All initial values are dumped below at time 0 sec = 0 timescale units.
$end

$dumpvars
b10000010000000000 aaa
b100 aab
b0 aac
b11 aad
0aae
1aaf
0aag
$end

#10000
b11100000 aac
0aaf

#15000
1aag

#20000
b1110110000000000 aaa
0aag

#25000
b10111010 aac
1aag

#30000
b111110000000000000 aaa
0aag

#35000
1aag

#40000
b1000000010010000000000 aaa
0aag

#45000
1aag

#50000
0aag

#55000
b10111011 aac
1aag

#60000
b11000000000000 aaa
0aag

#65000
1aag

#70000
b111110000000000000 aaa
0aag

#75000
1aag

#80000
b1100011000000000 aaa
0aag

#85000
1aag

#90000
0aag

#95000
b100010 aac
1aag

#100000
b11101100000000000000 aaa
0aag

#105000
1aag

#110000
0aag

#115000
1aag

#120000
0aag

#125000
1aag

#130000
0aag

#135000
b11000001 aac
1aag

#140000
b1110110000000100 aaa
0aag

#145000
1aag

#150000
0aag

#155000
1aag

#160000
0aag

#165000
1aag

#170000
0aag

#175000
b10111000 aac
1aag

#180000
0aag

#185000
1aag

#190000
0aag

#195000
1aag

#200000
b11000000000000 aaa
0aag

#205000
1aag

#210000
b111110000000000000 aaa
0aag

#215000
b1010000 aac
1aag

#220000
b11101100000000000000 aaa
0aag

#225000
1aag

#230000
0aag

#235000
1aag

#240000
b11000000000000 aaa
0aag

#245000
1aag

#250000
b111110000000000000 aaa
0aag

#255000
b10111000 aac
1aag

#260000
b1110111000000000 aaa
0aag

#265000
1aag

#270000
0aag

#275000
1aag

#280000
0aag

#285000
1aag

#290000
b11000000000000 aaa
0aag

#295000
b110000 aac
1aag

#300000
b111110000000000000 aaa
0aag

#305000
1aag

#310000
b11101100000000000000 aaa
0aag

#315000
1aag

#320000
0aag

#325000
1aag

#330000
b11000000000000 aaa
0aag

#335000
b11000010 aac
1aag

#340000
b111110000000000000 aaa
0aag

#345000
1aag

#350000
b1110110010000000 aaa
0aag

#355000
1aag

#360000
0aag

#365000
1aag

#370000
b11000000000000 aaa
0aag

#375000
b11000000 aac
1aag

#380000
b111110000000000000 aaa
0aag

#385000
1aag

#390000
b10000010000000000 aaa
0aag

#395000
1aag

#400000
0aag

#405000
1aag

#410000
0aag

#415000
b10010 aac
1aag

#420000
0aag

#425000
1aag

#430000
0aag

#435000
1aag

#440000
0aag

#445000
1aag

#450000
0aag

#455000
b11000011 aac
1aag

#460000
0aag

#465000
1aag

#470000
0aag

#475000
1aag

#480000
0aag

#485000
1aag

#490000
0aag

#495000
b10110101 aac
1aag

#500000
0aag

#505000
1aag

#510000
0aag

#515000
1aag

#520000
0aag

#525000
1aag

#530000
0aag

#535000
b10111100 aac
1aag

#540000
0aag

#545000
1aag

#550000
0aag

#555000
1aag

#560000
0aag

#565000
1aag

#570000
0aag

#575000
b10111111 aac
1aag

#580000
0aag

#585000
1aag

#590000
0aag

#595000
1aag

#600000
0aag

#605000
1aag

#610000
0aag

#615000
b10101110 aac
1aag

#620000
0aag

#625000
1aag

#630000
0aag

#635000
1aag

#640000
0aag

#645000
1aag

#650000
0aag

#655000
b0 aac
1aag

