SystemC_Project/CSP/CSPCTRL.vcd
$comment
Copyright (C) 1991-2009 Altera Corporation
Your use of Altera Corporation's design tools, logic functions 
and other software and tools, and its AMPP partner logic 
functions, and any output files from any of the foregoing 
(including device programming or simulation files), and any 
associated documentation or information are expressly subject 
to the terms and conditions of the Altera Program License 
Subscription Agreement, Altera MegaCore Function License 
Agreement, or other applicable license agreement, including, 
without limitation, that your use is for the sole purpose of 
programming logic devices manufactured by Altera and sold by 
Altera or its authorized distributors.  Please refer to the 
applicable agreement for further details.
$end

$date 
  08/20/2013 15:21:44 
$end
$version 
 QUARTUS_VCD_EXPORT 1.0 
$end
$timescale
  1 ps
$end
$scope module SystemC $end
$var reg 8 ! CSPCTRL_out[7:0] $end
$var reg 8 " CSPCTRL_in[7:0] $end
$var reg 1 # Encspctrl $end
$var reg 1 $ Rst $end
$var reg 1 % Clk $end
$upscope $end
$enddefinitions $end
#0
$dumpvars
b0 !
b0 "
0#
1$
0%
$end
#10000
0$
1%
#15000
b100101 "
0%
#20000
1%
#25000
b1001101 "
0%
#30000
1%
#35000
b1001000 "
1#
0%
#40000
b1001000 !
1%
#45000
b11011011 "
0#
0%
#50000
1%
#55000
b1001010 "
0%
#60000
1%
#65000
b11000000 "
0%
#70000
1%
#75000
b11110000 "
1#
0%
#80000
b11110000 !
1%
#85000
b11111101 "
0#
0%
#90000
1%
#95000
b10010111 "
1#
0%
#100000
b10010111 !
1%
#105000
b1101000 "
0#
0%
#110000
1%
#115000
b10101110 "
1#
0%
#120000
b10101110 !
1%
#125000
b101001 "
0%
#130000
b101001 !
1%
#135000
b110111 "
0%
#140000
b110111 !
1%
#145000
b111110 "
0%
#150000
b111110 !
1%
#155000
b1001010 "
0#
0%
#160000
1%
#165000
b11110111 "
1#
0%
#170000
b11110111 !
1%
#175000
b10010010 "
0%
#180000
b10010010 !
1%
#185000
b1111011 "
0#
0%
#190000
1%
#195000
b11001101 "
0%
#200000
1%
#205000
b1000001 "
1#
0%
#210000
b1000001 !
1%
#215000
b1010000 "
0#
0%
#220000
1%
#225000
b10011000 "
1#
0%
#230000
b10011000 !
1%
#235000
b10000001 "
0#
0%
#240000
1%
#245000
b100000 "
1#
0%
#250000
b100000 !
1%
#255000
b1011100 "
0%
#260000
b1011100 !
1%
#265000
b1001111 "
0%
#270000
b1001111 !
1%
#275000
b11101111 "
0#
0%
#280000
1%
#285000
b11101101 "
0%
#290000
1%
#295000
b11011101 "
0%
#300000
1%
#305000
b10011000 "
0%
#310000
1%
#315000
b11011110 "
1#
0%
#320000
b11011110 !
1%
#325000
b1000000 "
0%
#330000
b1000000 !
1%
#335000
b111101 "
0%
#340000
b111101 !
1%
#345000
b10101100 "
0#
0%
#350000
1%
#355000
b1011010 "
1#
0%
#360000
b1011010 !
1%
#365000
b11110011 "
0#
0%
#370000
1%
#375000
b100110 "
1#
0%
#380000
b100110 !
1%
#385000
b100 "
0#
0%
#390000
1%
#395000
b10101001 "
1#
0%
#400000
b10101001 !
1%
#405000
b11111 "
0#
0%
#410000
1%
#415000
b1111111 "
1#
0%
#420000
b1111111 !
1%
#425000
b1011001 "
0#
0%
#430000
1%
#435000
b1010110 "
1#
0%
#440000
b1010110 !
1%
#445000
b11100 "
0#
0%
#450000
1%
#455000
b1110010 "
0%
#460000
1%
#465000
b10100101 "
1#
0%
#470000
b10100101 !
1%
#475000
b101010 "
0#
0%
#480000
1%
#485000
b10000100 "
1#
0%
#490000
b10000100 !
1%
