SystemC_Project/CSP/CSPMACtimer.vcd
$comment
Copyright (C) 1991-2009 Altera Corporation
Your use of Altera Corporation's design tools, logic functions 
and other software and tools, and its AMPP partner logic 
functions, and any output files from any of the foregoing 
(including device programming or simulation files), and any 
associated documentation or information are expressly subject 
to the terms and conditions of the Altera Program License 
Subscription Agreement, Altera MegaCore Function License 
Agreement, or other applicable license agreement, including, 
without limitation, that your use is for the sole purpose of 
programming logic devices manufactured by Altera and sold by 
Altera or its authorized distributors.  Please refer to the 
applicable agreement for further details.
$end

$date 
  08/27/2013 09:11:19 
$end
$version 
 QUARTUS_VCD_EXPORT 1.0 
$end
$timescale
  1 ps
$end
$scope module SystemC $end
$var reg 8 ! OFECou[7:0] $end
$var reg 1 " Enmactimer $end
$var reg 1 # Rst $end
$var reg 1 $ Clk $end
$upscope $end
$enddefinitions $end
#0
$dumpvars
b0 !
0"
1#
0$
$end
#10000
0#
1$
#15000
0$
#20000
1$
#25000
0$
#30000
1$
#35000
0$
#40000
1$
#45000
0$
#50000
1$
#55000
0$
#60000
1$
#65000
0$
#70000
1$
#75000
1"
0$
#80000
1$
#85000
0"
0$
#90000
1$
#95000
0$
#100000
1$
#105000
1"
0$
#110000
1$
#115000
0"
0$
#120000
1$
#125000
0$
#130000
1$
#135000
0$
#140000
1$
#145000
1"
0$
#150000
1$
#155000
0"
0$
#160000
1$
#165000
0$
#170000
1$
#175000
0$
#180000
1$
#185000
1"
0$
#190000
1$
#195000
0"
0$
#200000
1$
#205000
0$
#210000
1$
#215000
1"
0$
#220000
1$
#225000
0$
#230000
1$
#235000
0"
0$
#240000
1$
#245000
0$
#250000
1$
#255000
0$
#260000
1$
#265000
1"
0$
#270000
1$
#275000
0$
#280000
1$
#285000
0$
#290000
b1 !
1$
#295000
0"
0$
#300000
b0 !
1$
#305000
0$
#310000
1$
#315000
1"
0$
#320000
1$
#325000
0$
#330000
1$
#335000
0$
#340000
b1 !
1$
#345000
0$
#350000
1$
#355000
0$
#360000
1$
#365000
0"
0$
#370000
b0 !
1$
#375000
0$
#380000
1$
#385000
1"
0$
#390000
1$
#395000
0"
0$
#400000
1$
#405000
0$
#410000
1$
#415000
1"
0$
#420000
1$
#425000
0$
#430000
1$
#435000
0"
0$
#440000
1$
#445000
1"
0$
#450000
1$
#455000
0"
0$
#460000
1$
#465000
1"
0$
#470000
1$
#475000
0$
#480000
1$
#485000
0$
#490000
b1 !
1$
