SystemC_Project/CSP/CSPPC.vcd
$comment
Copyright (C) 1991-2009 Altera Corporation
Your use of Altera Corporation's design tools, logic functions 
and other software and tools, and its AMPP partner logic 
functions, and any output files from any of the foregoing 
(including device programming or simulation files), and any 
associated documentation or information are expressly subject 
to the terms and conditions of the Altera Program License 
Subscription Agreement, Altera MegaCore Function License 
Agreement, or other applicable license agreement, including, 
without limitation, that your use is for the sole purpose of 
programming logic devices manufactured by Altera and sold by 
Altera or its authorized distributors.  Please refer to the 
applicable agreement for further details.
$end

$date 
  08/20/2013 15:34:31 
$end
$version 
 QUARTUS_VCD_EXPORT 1.0 
$end
$timescale
  1 ps
$end
$scope module SystemC $end
$var reg 8 ! CSPPC_out[7:0] $end
$var reg 3 " S[2:0] $end
$var reg 8 # CSPPC_in[7:0] $end
$var reg 1 $ Encsppc $end
$var reg 1 % Rst $end
$var reg 1 & Clk $end
$upscope $end
$enddefinitions $end
#0
$dumpvars
b0 !
b0 "
b0 #
0$
1%
0&
$end
#10000
0%
1&
#15000
b11000111 #
0&
#20000
1&
#25000
b1010 #
1$
0&
#30000
b1010 !
1&
#35000
b1110000 #
0&
#40000
b1110000 !
1&
#45000
b100 "
b11111 #
0&
#50000
b11111 !
1&
#55000
b11 "
b10010010 #
0$
0&
#60000
b100010 !
1&
#65000
b101 "
b110011 #
0&
#70000
b100111 !
1&
#75000
b110 "
b10010101 #
0&
#80000
b101101 !
1&
#85000
b100 "
b11110001 #
1$
0&
#90000
b11110001 !
1&
#95000
b1 "
b11001110 #
0$
0&
#100000
b11110010 !
1&
#105000
b10 "
b11010000 #
0&
#110000
b11110100 !
1&
#115000
b110 "
b1101111 #
1$
0&
#120000
b1101111 !
1&
#125000
b10110 #
0$
0&
#130000
b1110101 !
1&
#135000
b1 "
b11001010 #
1$
0&
#140000
b11001010 !
1&
#145000
b0 "
b1010101 #
0$
0&
#150000
1&
#155000
b100 "
b1011111 #
1$
0&
#160000
b1011111 !
1&
#165000
b101 "
b11000100 #
0&
#170000
b11000100 !
1&
#175000
b1001001 #
0$
0&
#180000
b11001001 !
1&
#185000
b100 "
b11011101 #
0&
#190000
b11001101 !
1&
#195000
b110 "
b101 #
1$
0&
#200000
b101 !
1&
#205000
b100 "
b100001 #
0$
0&
#210000
b1001 !
1&
#215000
b110 "
b10101000 #
1$
0&
#220000
b10101000 !
1&
#225000
b11 "
b11111111 #
0&
#230000
b11111111 !
1&
#235000
b0 "
b10 #
0$
0&
#240000
1&
#245000
b110 "
b101010 #
1$
0&
#250000
b101010 !
1&
#255000
b111111 #
0$
0&
#260000
b110000 !
1&
#265000
b11 "
b11100000 #
0&
#270000
b110011 !
1&
#275000
b0 "
b11111111 #
1$
0&
#280000
b11111111 !
1&
#285000
b100 "
b11110001 #
0$
0&
#290000
b11 !
1&
#295000
b1 "
b110 #
1$
0&
#300000
b110 !
1&
#305000
b101 "
b10001001 #
0&
#310000
b10001001 !
1&
#315000
b11 "
b11101100 #
0$
0&
#320000
b10001100 !
1&
#325000
b0 "
b1100 #
0&
#330000
1&
#335000
b100 "
b1111001 #
0&
#340000
b10010000 !
1&
#345000
b11 "
b1111100 #
0&
#350000
b10010011 !
1&
#355000
b1 "
b10001011 #
1$
0&
#360000
b10001011 !
1&
#365000
b1001010 #
0&
#370000
b1001010 !
1&
#375000
b11 "
b10111101 #
0&
#380000
b10111101 !
1&
#385000
b100 "
b10000011 #
0$
0&
#390000
b11000001 !
1&
#395000
b111 "
b101101 #
1$
0&
#400000
b101101 !
1&
#405000
b0 "
b10101001 #
0&
#410000
b10101001 !
1&
#415000
b101 "
b101 #
0$
0&
#420000
b10101110 !
1&
#425000
b111 "
b11001001 #
1$
0&
#430000
b11001001 !
1&
#435000
b11 "
b10111100 #
0$
0&
#440000
b11001100 !
1&
#445000
b10 "
b10000110 #
0&
#450000
b11001110 !
1&
#455000
b110000 #
1$
0&
#460000
b110000 !
1&
#465000
b110 "
b101101 #
0$
0&
#470000
b110110 !
1&
#475000
b101 "
b11101011 #
0&
#480000
b111011 !
1&
#485000
b110 "
b0 #
0&
#490000
b1000001 !
1&
