SystemC_Project/CSP/CSPRFST.vcd
$comment
Copyright (C) 1991-2009 Altera Corporation
Your use of Altera Corporation's design tools, logic functions 
and other software and tools, and its AMPP partner logic 
functions, and any output files from any of the foregoing 
(including device programming or simulation files), and any 
associated documentation or information are expressly subject 
to the terms and conditions of the Altera Program License 
Subscription Agreement, Altera MegaCore Function License 
Agreement, or other applicable license agreement, including, 
without limitation, that your use is for the sole purpose of 
programming logic devices manufactured by Altera and sold by 
Altera or its authorized distributors.  Please refer to the 
applicable agreement for further details.
$end

$date 
  08/20/2013 15:50:56 
$end
$version 
 QUARTUS_VCD_EXPORT 1.0 
$end
$timescale
  1 ps
$end
$scope module SystemC $end
$var reg 8 ! CSPRFST_out[7:0] $end
$var reg 8 " CSPRFST_in[7:0] $end
$var reg 1 # Rst $end
$var reg 1 $ Clk $end
$upscope $end
$enddefinitions $end
#0
$dumpvars
b0 !
b0 "
1#
0$
$end
#10000
0#
1$
#15000
b10000101 "
0$
#20000
b10000101 !
1$
#25000
b10010 "
0$
#30000
b10010 !
1$
#35000
b10000011 "
0$
#40000
b10000011 !
1$
#45000
b10001000 "
0$
#50000
b10001000 !
1$
#55000
b10111010 "
0$
#60000
b10111010 !
1$
#65000
b11111110 "
0$
#70000
b11111110 !
1$
#75000
b1010100 "
0$
#80000
b1010100 !
1$
#85000
b1101000 "
0$
#90000
b1101000 !
1$
#95000
b10101111 "
0$
#100000
b10101111 !
1$
#105000
b11011111 "
0$
#110000
b11011111 !
1$
#115000
b11100101 "
0$
#120000
b11100101 !
1$
#125000
b1101000 "
0$
#130000
b1101000 !
1$
#135000
b10111010 "
0$
#140000
b10111010 !
1$
#145000
b100000 "
0$
#150000
b100000 !
1$
#155000
b11100100 "
0$
#160000
b11100100 !
1$
#165000
b1111010 "
0$
#170000
b1111010 !
1$
#175000
b11000100 "
0$
#180000
b11000100 !
1$
#185000
b10101000 "
0$
#190000
b10101000 !
1$
#195000
b11 "
0$
#200000
b11 !
1$
#205000
b1101110 "
0$
#210000
b1101110 !
1$
#215000
b10110111 "
0$
#220000
b10110111 !
1$
#225000
b11101100 "
0$
#230000
b11101100 !
1$
#235000
b11111010 "
0$
#240000
b11111010 !
1$
#245000
b100101 "
0$
#250000
b100101 !
1$
#255000
b11011 "
0$
#260000
b11011 !
1$
#265000
b1000110 "
0$
#270000
b1000110 !
1$
#275000
b11001100 "
0$
#280000
b11001100 !
1$
#285000
b101 "
0$
#290000
b101 !
1$
#295000
b11111101 "
0$
#300000
b11111101 !
1$
#305000
b10000110 "
0$
#310000
b10000110 !
1$
#315000
b1001000 "
0$
#320000
b1001000 !
1$
#325000
b10101101 "
0$
#330000
b10101101 !
1$
#335000
b10001 "
0$
#340000
b10001 !
1$
#345000
b11000111 "
0$
#350000
b11000111 !
1$
#355000
b11010000 "
0$
#360000
b11010000 !
1$
#365000
b11101011 "
0$
#370000
b11101011 !
1$
#375000
b11001 "
0$
#380000
b11001 !
1$
#385000
b10000101 "
0$
#390000
b10000101 !
1$
#395000
b1011110 "
0$
#400000
b1011110 !
1$
#405000
b11101011 "
0$
#410000
b11101011 !
1$
#415000
b10000110 "
0$
#420000
b10000110 !
1$
#425000
b11101101 "
0$
#430000
b11101101 !
1$
#435000
b11000101 "
0$
#440000
b11000101 !
1$
#445000
b10110010 "
0$
#450000
b10110010 !
1$
#455000
b1011010 "
0$
#460000
b1011110 !
1$
#465000
b1110000 "
0$
#470000
b1110100 !
1$
#475000
b110001 "
0$
#480000
b110101 !
1$
#485000
b10000000 "
0$
#490000
b11001100 !
1$
