SystemC_Project/CSP/CSPT.vcd
$comment
Copyright (C) 1991-2009 Altera Corporation
Your use of Altera Corporation's design tools, logic functions 
and other software and tools, and its AMPP partner logic 
functions, and any output files from any of the foregoing 
(including device programming or simulation files), and any 
associated documentation or information are expressly subject 
to the terms and conditions of the Altera Program License 
Subscription Agreement, Altera MegaCore Function License 
Agreement, or other applicable license agreement, including, 
without limitation, that your use is for the sole purpose of 
programming logic devices manufactured by Altera and sold by 
Altera or its authorized distributors.  Please refer to the 
applicable agreement for further details.
$end

$date 
  08/20/2013 15:22:23 
$end
$version 
 QUARTUS_VCD_EXPORT 1.0 
$end
$timescale
  1 ps
$end
$scope module SystemC $end
$var reg 8 ! CSPT_out[7:0] $end
$var reg 8 " CSPT_in[7:0] $end
$var reg 1 # Dect $end
$var reg 1 $ Encspt $end
$var reg 1 % Rst $end
$var reg 1 & Clk $end
$upscope $end
$enddefinitions $end
#0
$dumpvars
b0 !
b0 "
0#
0$
1%
0&
$end
#10000
0%
1&
#15000
0&
#20000
1&
#25000
b11010010 "
0&
#30000
1&
#35000
b10101101 "
0&
#40000
1&
#45000
b11 "
0&
#50000
1&
#55000
b1111 "
1#
0&
#60000
b11111111 !
1&
#65000
b1100111 "
0#
1$
0&
#70000
b1100111 !
1&
#75000
b11010000 "
1#
0&
#80000
b11010000 !
1&
#85000
b1010101 "
0$
0&
#90000
b11001111 !
1&
#95000
b10011011 "
0&
#100000
b11001110 !
1&
#105000
b1101111 "
0#
0&
#110000
1&
#115000
b10100001 "
0&
#120000
1&
#125000
b10101 "
1$
0&
#130000
b10101 !
1&
#135000
b10111 "
1#
0&
#140000
b10111 !
1&
#145000
b11101111 "
0&
#150000
b11101111 !
1&
#155000
b10110101 "
0$
0&
#160000
b11101110 !
1&
#165000
b1100111 "
0#
1$
0&
#170000
b1100111 !
1&
#175000
b111001 "
1#
0&
#180000
b111001 !
1&
#185000
b101100 "
0$
0&
#190000
b111000 !
1&
#195000
b11100010 "
0#
0&
#200000
1&
#205000
b10110001 "
1#
1$
0&
#210000
b10110001 !
1&
#215000
b11110110 "
0#
0$
0&
#220000
1&
#225000
b10101100 "
0&
#230000
1&
#235000
b111101 "
1$
0&
#240000
b111101 !
1&
#245000
b10010111 "
0$
0&
#250000
1&
#255000
b10000011 "
1#
1$
0&
#260000
b10000011 !
1&
#265000
b110010 "
0&
#270000
b110010 !
1&
#275000
b11001 "
0&
#280000
b11001 !
1&
#285000
b0 "
0$
0&
#290000
b11000 !
1&
#295000
b1010101 "
0&
#300000
b10111 !
1&
#305000
b11000101 "
0#
0&
#310000
1&
#315000
b1110 "
1$
0&
#320000
b1110 !
1&
#325000
1#
0&
#330000
1&
#335000
b100000 "
0#
0&
#340000
b100000 !
1&
#345000
b10101001 "
1#
0$
0&
#350000
b11111 !
1&
#355000
b11101110 "
0#
0&
#360000
1&
#365000
b101001 "
1$
0&
#370000
b101001 !
1&
#375000
b11011011 "
0$
0&
#380000
1&
#385000
b1100011 "
1#
0&
#390000
b101000 !
1&
#395000
b11010000 "
0#
1$
0&
#400000
b11010000 !
1&
#405000
b11110100 "
0&
#410000
b11110100 !
1&
#415000
b10111001 "
0$
0&
#420000
1&
#425000
1$
0&
#430000
b10111001 !
1&
#435000
b1000 "
1#
0$
0&
#440000
b10111000 !
1&
#445000
b1010100 "
1$
0&
#450000
b1010100 !
1&
#455000
b10001 "
0#
0$
0&
#460000
1&
#465000
b10001110 "
1#
0&
#470000
b1010011 !
1&
#475000
b1100 "
0#
1$
0&
#480000
b101100 !
1&
#485000
b0 "
1#
0&
#490000
b1110000 !
1&
