SystemC_Project/CSP/CSPTOP.vcd
$date
     Sep 09, 2013       20:30:40
$end

$version
              SystemC 2.3.0-ASI --- Aug 19 2013 15:21:00
$end

$timescale
     1 ps
$end

$scope module SystemC $end
$var wire    4  aaa  W [3:0]  $end
$var wire   32  aab  i [31:0]  $end
$var wire    8  aac  MUX [7:0]  $end
$var wire    8  aad  CSPIR_out [7:0]  $end
$var wire    1  aae  flush_rx       $end
$var wire    1  aaf  Rxoff       $end
$var wire    1  aag  Rxon       $end
$var wire    1  aah  flush_tx       $end
$var wire    1  aai  Txoff       $end
$var wire    1  aaj  ackset       $end
$var wire    1  aak  Txoncca       $end
$var wire    1  aal  Txon       $end
$var wire    1  aam  Txcaln       $end
$var wire   16  aan  Random_in [15:0]  $end
$var wire    8  aao  RFST_in [7:0]  $end
$var wire    1  aap  CCA_Active       $end
$var wire    1  aaq  Tx_Active       $end
$var wire    1  aar  Rst       $end
$var wire    1  aas  Clk       $end
$upscope $end
$enddefinitions  $end

$comment
All initial values are dumped below at time 0 sec = 0 timescale units.
$end

$dumpvars
b1000 aaa
b10000010000000000 aab
b0 aac
b0 aad
0aae
0aaf
0aag
0aah
0aai
0aaj
0aak
0aal
0aam
b0 aan
b0 aao
0aap
0aaq
1aar
0aas
$end

#10000
0aar

#15000
b11100000 aao
1aas

#20000
b11100000 aac
0aas

#25000
b0 aac
b11100000 aad
b110111011000111 aan
b0 aao
1aas

#30000
b1110110000000000 aab
0aas

#35000
b1 aaa
b0 aad
b111100111001000 aan
1aas

#40000
b11000000000000 aab
b11111111 aac
0aas

#45000
b10 aaa
b100010010001010 aan
1aas

#50000
b111110000000000000 aab
b0 aac
0aas

#55000
b100 aaa
b10111010 aac
b11011001100001 aan
1aas

#60000
b1110110000000000 aab
0aas

#65000
b1000 aaa
b10111010 aad
b110101000110111 aan
1aas

#70000
b11111111 aac
0aas

#75000
b1 aaa
b111001110010011 aan
1aas

#80000
b11000000000000 aab
0aas

#85000
b10 aaa
b110011000010101 aan
1aas

#90000
b111110000000000000 aab
b10111010 aac
0aas

#95000
b100 aaa
b10111011 aac
b10101100111011 aan
1aas

#100000
b1000000010010000000000 aab
0aas

#105000
b1000 aaa
b10111011 aad
b110110001111100 aan
1aas

#110000
b10 aac
0aas

#115000
b1 aaa
b1010010010 aan
1aas

#120000
b11000000000000 aab
0aas

#125000
b10 aaa
b100111011110100 aan
1aas

#130000
b111110000000000000 aab
b10111011 aac
0aas

#135000
b100 aaa
b100010 aac
b10100101010000 aan
1aas

#140000
b1100011000000000 aab
0aas

#145000
b100010 aad
b101100101100011 aan
1aas

#150000
b1110110000000000 aab
b0 aac
0aas

#155000
b101001010101010 aan
1aas

#160000
b11111111 aac
0aas

#165000
b11010110000010 aan
1aas

#170000
0aas

#175000
b1111101100001 aan
1aas

#180000
0aas

#185000
b110111100111000 aan
1aas

#190000
0aas

#195000
b100100101001000 aan
1aas

#200000
0aas

#205000
b100100010001010 aan
1aas

#210000
0aas

#215000
b10001111100001 aan
1aas

#220000
0aas

#225000
b100001000111010 aan
1aas

#230000
0aas

#235000
b110001100000100 aan
1aas

#240000
0aas

#245000
b10011001011001 aan
1aas

#250000
0aas

#255000
b101111110110010 aan
1aas

#260000
0aas

#265000
b110001001100 aan
1aas

#270000
0aas

#275000
b1010001111110 aan
1aas

#280000
0aas

#285000
b100101000010111 aan
1aas

#290000
0aas

#295000
b1011000110000 aan
1aas

#300000
0aas

#305000
b10010011101101 aan
1aas

#310000
0aas

#315000
b11001010001100 aan
1aas

#320000
0aas

#325000
b110001101010111 aan
1aas

#330000
0aas

#335000
b110111001110000 aan
1aas

#340000
0aas

#345000
b11010101101010 aan
1aas

#350000
0aas

#355000
b10010110011000 aan
1aas

#360000
0aas

#365000
b100101111101100 aan
1aas

#370000
0aas

#375000
b110000111001001 aan
1aas

#380000
0aas

#385000
b111110101010010 aan
1aas

#390000
0aas

#395000
b110110001000011 aan
1aas

#400000
0aas

#405000
b111111111110 aan
1aas

#410000
0aas

#415000
b111001110010100 aan
1aas

#420000
0aas

#425000
b11101100101011 aan
1aas

#430000
0aas

#435000
b11000101001110 aan
1aas

#440000
0aas

#445000
b11110001011110 aan
1aas

#450000
0aas

#455000
b1011000110001 aan
1aas

#460000
0aas

#465000
b110101100011 aan
1aas

#470000
0aas

#475000
b111100010111011 aan
1aas

#480000
0aas

#485000
b110011100010111 aan
1aas

#490000
0aas

#495000
b110000101001011 aan
1aas

#500000
0aas

#505000
b101111110001010 aan
1aas

#510000
0aas

#515000
b10100000101111 aan
1aas

#520000
0aas

#525000
b10011001000110 aan
1aas

#530000
0aas

#535000
b111110101011100 aan
1aas

#540000
0aas

#545000
b11011110111110 aan
1aas

#550000
0aas

#555000
b110111010011011 aan
1aas

#560000
0aas

#565000
b110100100101011 aan
1aas

#570000
0aas

#575000
b110100001110011 aan
1aas

#580000
0aas

#585000
b111100001100110 aan
1aas

#590000
0aas

#595000
b100111100011011 aan
1aas

#600000
0aas

#605000
b110011101111111 aan
1aas

#610000
0aas

#615000
b111100000110101 aan
1aas

#620000
0aas

#625000
b110101000100011 aan
1aas

#630000
0aas

#635000
b101001100011111 aan
1aas

#640000
0aas

#645000
b1101100001000 aan
1aas

#650000
0aas

#655000
b11110100100001 aan
1aas

#660000
0aas

#665000
b10001000000011 aan
1aas

#670000
0aas

#675000
b10011111001000 aan
1aas

#680000
0aas

#685000
b111011101101100 aan
1aas

#690000
0aas

#695000
b10101100011001 aan
1aas

#700000
0aas

#705000
b1011111111000 aan
1aas

#710000
0aas

#715000
b10101010010101 aan
1aas

#720000
0aas

#725000
b101010001000011 aan
1aas

#730000
0aas

#735000
b10101100011110 aan
1aas

#740000
0aas

#745000
b110001001 aan
1aas

#750000
0aas

#755000
b10100100111110 aan
1aas

#760000
0aas

#765000
b11110101101111 aan
1aas

#770000
0aas

#775000
b111101001011100 aan
1aas

#780000
0aas

#785000
b100010011001000 aan
1aas

#790000
0aas

#795000
b101100011100000 aan
1aas

#800000
0aas

#805000
b1110110110000 aan
1aas

#810000
0aas

#815000
b111101001100110 aan
1aas

#820000
0aas

#825000
b1011110000100 aan
1aas

#830000
0aas

#835000
b100100001011011 aan
1aas

#840000
0aas

#845000
b111011101110011 aan
1aas

#850000
0aas

#855000
b101011011000010 aan
1aas

#860000
0aas

#865000
b1111010111111 aan
1aas

#870000
0aas

#875000
b101000111111000 aan
1aas

#880000
0aas

#885000
b1111111101011 aan
1aas

#890000
0aas

#895000
b10001110101000 aan
1aas

#900000
0aas

#905000
b10001001100010 aan
1aas

#910000
0aas

#915000
b101000001010000 aan
1aas

#920000
0aas

#925000
b11000001100011 aan
1aas

#930000
0aas

#935000
b101101000000111 aan
1aas

#940000
0aas

#945000
b10100100110000 aan
1aas

#950000
0aas

#955000
b1101001101001 aan
1aas

#960000
0aas

#965000
b10000111010011 aan
1aas

#970000
0aas

#975000
b101010011001001 aan
1aas

#980000
0aas

#985000
b1000011111001 aan
1aas

#990000
0aas

#995000
b101100100001 aan
1aas

#1000000
0aas

#1005000
b100011010110001 aan
1aas

#1010000
0aas

#1015000
b11001101011000 aan
1aas

#1020000
0aas

#1025000
b111011100010000 aan
1aas

#1030000
0aas

#1035000
b1011111010000 aan
1aas

#1040000
0aas

#1045000
b1011100001001 aan
1aas

#1050000
0aas

#1055000
b100010101100001 aan
1aas

#1060000
0aas

#1065000
b10011111111 aan
1aas

#1070000
0aas

#1075000
b11101000101001 aan
1aas

#1080000
0aas

#1085000
b1011010000 aan
1aas

#1090000
0aas

#1095000
b110001111011000 aan
1aas

#1100000
0aas

#1105000
b111010101111000 aan
1aas

#1110000
0aas

#1115000
b11000101100001 aan
1aas

#1120000
0aas

#1125000
b11111001110110 aan
1aas

#1130000
0aas

#1135000
b101101100111100 aan
1aas

#1140000
0aas

#1145000
b110010110001111 aan
1aas

#1150000
0aas

#1155000
b101111010010100 aan
1aas

#1160000
0aas

#1165000
b11110110111010 aan
1aas

#1170000
0aas

#1175000
b100101100011100 aan
1aas

#1180000
0aas

#1185000
b100011000100111 aan
1aas

#1190000
0aas

#1195000
b100000001100100 aan
1aas

#1200000
0aas

#1205000
b101000011000010 aan
1aas

#1210000
0aas

#1215000
b1111011011010 aan
1aas

#1220000
0aas

#1225000
b110101010 aan
1aas

#1230000
0aas

#1235000
b101000111100011 aan
1aas

#1240000
0aas

#1245000
b1011101101011 aan
1aas

#1250000
0aas

#1255000
b1110101111 aan
1aas

#1260000
0aas

#1265000
b10100111111110 aan
1aas

#1270000
0aas

#1275000
b101000010110011 aan
1aas

#1280000
0aas

#1285000
b11111011011110 aan
1aas

#1290000
0aas

#1295000
b111111111101111 aan
1aas

#1300000
0aas

#1305000
b100001010110100 aan
1aas

#1310000
0aas

#1315000
b10111001101011 aan
1aas

#1320000
0aas

#1325000
b11110101100100 aan
1aas

#1330000
0aas

#1335000
b111110001110 aan
1aas

#1340000
0aas

#1345000
b111101110000010 aan
1aas

#1350000
0aas

#1355000
b11000100111101 aan
1aas

#1360000
0aas

#1365000
b1111011 aan
1aas

#1370000
0aas

#1375000
b110100111100100 aan
1aas

#1380000
0aas

#1385000
b110111011110011 aan
1aas

#1390000
0aas

#1395000
b11111010110 aan
1aas

#1400000
0aas

#1405000
b100000100101001 aan
1aas

#1410000
0aas

#1415000
b101010010101101 aan
1aas

#1420000
0aas

#1425000
b11100101011101 aan
1aas

#1430000
0aas

#1435000
b101010010000110 aan
1aas

#1440000
0aas

#1445000
b111001010010000 aan
1aas

#1450000
0aas

#1455000
b10100001010100 aan
1aas

#1460000
0aas

#1465000
b111110000010100 aan
1aas

#1470000
0aas

#1475000
b111001110100001 aan
1aas

#1480000
0aas

#1485000
b111111011000011 aan
1aas

#1490000
0aas

#1495000
b110100101110001 aan
1aas

#1500000
0aas

#1505000
b10000011011101 aan
1aas

#1510000
0aas

#1515000
b100100101 aan
1aas

#1520000
0aas

#1525000
b100010111011000 aan
1aas

#1530000
0aas

#1535000
b1101110010000 aan
1aas

#1540000
0aas

#1545000
b111000110100101 aan
1aas

#1550000
0aas

#1555000
b110000110011100 aan
1aas

#1560000
0aas

#1565000
b1001100111110 aan
1aas

#1570000
0aas

#1575000
b11000100110100 aan
1aas

#1580000
0aas

#1585000
b101100001110011 aan
1aas

#1590000
0aas

#1595000
b101001001000100 aan
1aas

#1600000
0aas

#1605000
b111110101010001 aan
1aas

#1610000
0aas

#1615000
b11110100011011 aan
1aas

#1620000
0aas

#1625000
b101101110011100 aan
1aas

#1630000
0aas

#1635000
b100010001101110 aan
1aas

#1640000
0aas

#1645000
b110001100101100 aan
1aas

#1650000
0aas

#1655000
b100100011000100 aan
1aas

#1660000
0aas

#1665000
b10101000110110 aan
1aas

#1670000
0aas

#1675000
b100000100100 aan
1aas

#1680000
0aas

#1685000
b111110010111110 aan
1aas

#1690000
0aas

#1695000
b111010000101111 aan
1aas

#1700000
0aas

#1705000
b100110011001110 aan
1aas

#1710000
0aas

#1715000
b101000001110 aan
1aas

#1720000
0aas

#1725000
b11000100100001 aan
1aas

#1730000
0aas

#1735000
b100001011100100 aan
1aas

#1740000
0aas

#1745000
b100111001011110 aan
1aas

#1750000
0aas

#1755000
b10100010010111 aan
1aas

#1760000
0aas

#1765000
b10011100100110 aan
1aas

#1770000
0aas

#1775000
b11101000110110 aan
1aas

#1780000
0aas

#1785000
b111000101111001 aan
1aas

#1790000
0aas

#1795000
b110010001001011 aan
1aas

#1800000
0aas

#1805000
b100010000110101 aan
1aas

#1810000
0aas

#1815000
b11010011001001 aan
1aas

#1820000
0aas

#1825000
b100010111001001 aan
1aas

#1830000
0aas

#1835000
b110111110000011 aan
1aas

#1840000
0aas

#1845000
b110101010100 aan
1aas

#1850000
0aas

#1855000
b111101010010 aan
1aas

#1860000
0aas

#1865000
b11000110111011 aan
1aas

#1870000
0aas

#1875000
b110000101000101 aan
1aas

#1880000
0aas

#1885000
b1111010000101 aan
1aas

#1890000
0aas

#1895000
b1001010011110 aan
1aas

#1900000
0aas

#1905000
b100010001111001 aan
1aas

#1910000
0aas

#1915000
b111101100110 aan
1aas

#1920000
0aas

#1925000
b10110001010101 aan
1aas

#1930000
0aas

#1935000
b11111011010110 aan
1aas

#1940000
0aas

#1945000
b110010000011001 aan
1aas

#1950000
0aas

#1955000
b101001111110001 aan
1aas

#1960000
0aas

#1965000
b100001110110010 aan
1aas

#1970000
0aas

#1975000
b101110000000001 aan
1aas

#1980000
0aas

#1985000
b10110000010011 aan
1aas

#1990000
0aas

#1995000
b100000111001101 aan
1aas

#2000000
0aas

#2005000
b11101111111101 aan
1aas

#2010000
0aas

#2015000
b111001111001010 aan
1aas

#2020000
0aas

#2025000
b111111111001 aan
1aas

#2030000
0aas

#2035000
b110010011001 aan
1aas

#2040000
0aas

#2045000
b111101100000 aan
1aas

#2050000
0aas

#2055000
b1100010000011 aan
1aas

#2060000
0aas

#2065000
b1011001100010 aan
1aas

#2070000
0aas

#2075000
b10011111011011 aan
1aas

#2080000
0aas

#2085000
b110101100010 aan
1aas

#2090000
0aas

#2095000
b1110101101011 aan
1aas

#2100000
0aas

#2105000
b100000000101000 aan
1aas

#2110000
0aas

#2115000
b110000101011010 aan
1aas

#2120000
0aas

#2125000
b1101110111000 aan
1aas

#2130000
0aas

#2135000
b10010000101100 aan
1aas

#2140000
0aas

#2145000
b110111111010011 aan
1aas

#2150000
0aas

#2155000
b111101011001000 aan
1aas

#2160000
0aas

#2165000
b111100101011110 aan
1aas

#2170000
0aas

#2175000
b10001110101000 aan
1aas

#2180000
0aas

#2185000
b110010101010100 aan
1aas

#2190000
0aas

#2195000
b11010100100 aan
1aas

#2200000
0aas

#2205000
b11011111100111 aan
1aas

#2210000
0aas

#2215000
b100101111110101 aan
1aas

#2220000
0aas

#2225000
b10000111110111 aan
1aas

#2230000
0aas

#2235000
b110001011111 aan
1aas

#2240000
0aas

#2245000
b101111100010010 aan
1aas

#2250000
0aas

#2255000
b110101110100110 aan
1aas

#2260000
0aas

#2265000
b100100010010011 aan
1aas

#2270000
0aas

#2275000
b11011110111110 aan
1aas

#2280000
0aas

#2285000
b110111010011101 aan
1aas

#2290000
0aas

#2295000
b11101001001101 aan
1aas

#2300000
0aas

#2305000
b100111000000011 aan
1aas

#2310000
0aas

#2315000
b1011101111111 aan
1aas

#2320000
0aas

#2325000
b11001001011110 aan
1aas

#2330000
0aas

#2335000
b10110000111110 aan
1aas

#2340000
0aas

#2345000
b110111011010 aan
1aas

#2350000
0aas

#2355000
b10111100111111 aan
1aas

#2360000
0aas

#2365000
b1110010001111 aan
1aas

#2370000
0aas

#2375000
b11001110010101 aan
1aas

#2380000
0aas

#2385000
b1011101010011 aan
1aas

#2390000
0aas

#2395000
b110000010011011 aan
1aas

#2400000
0aas

#2405000
b1101001101010 aan
1aas

#2410000
0aas

#2415000
b1001001111010 aan
1aas

#2420000
0aas

#2425000
b100011010000111 aan
1aas

#2430000
0aas

#2435000
b110111110010110 aan
1aas

#2440000
0aas

#2445000
b1011011110110 aan
1aas

#2450000
0aas

#2455000
b10001010100011 aan
1aas

#2460000
0aas

#2465000
b111110111100011 aan
1aas

#2470000
0aas

#2475000
b10011000111010 aan
1aas

#2480000
0aas

#2485000
b10000000100000 aan
1aas

#2490000
0aas

#2495000
b11011000011011 aan
1aas

#2500000
0aas

#2505000
b1001111011000 aan
1aas

#2510000
0aas

#2515000
b101101110000011 aan
1aas

#2520000
0aas

#2525000
b110001000001101 aan
1aas

#2530000
0aas

#2535000
b111010101000010 aan
1aas

#2540000
0aas

#2545000
b100100011010100 aan
1aas

#2550000
0aas

#2555000
b110000101111000 aan
1aas

#2560000
0aas

#2565000
b110110010101111 aan
1aas

#2570000
0aas

#2575000
b101111000010110 aan
1aas

#2580000
0aas

#2585000
b101100101110010 aan
1aas

#2590000
0aas

#2595000
b1111010011011 aan
1aas

#2600000
0aas

#2605000
b111011110010110 aan
1aas

#2610000
0aas

#2615000
b100100010110000 aan
1aas

#2620000
0aas

#2625000
b11101110 aan
1aas

#2630000
0aas

#2635000
b101011010000011 aan
1aas

#2640000
0aas

#2645000
b1100000001001 aan
1aas

#2650000
0aas

#2655000
b1010100010001 aan
1aas

#2660000
0aas

#2665000
b111111111011011 aan
1aas

#2670000
0aas

#2675000
b110010111001000 aan
1aas

#2680000
0aas

#2685000
b1110101010110 aan
1aas

#2690000
0aas

#2695000
b110011000011111 aan
1aas

#2700000
0aas

#2705000
b111101100011000 aan
1aas

#2710000
0aas

#2715000
b111010100011111 aan
1aas

#2720000
0aas

#2725000
b11101100110 aan
1aas

#2730000
0aas

#2735000
b110111101011 aan
1aas

#2740000
0aas

#2745000
b100011100000000 aan
1aas

#2750000
0aas

#2755000
b110011111000110 aan
1aas

#2760000
0aas

#2765000
b100101110010100 aan
1aas

#2770000
0aas

#2775000
b111100110101 aan
1aas

#2780000
0aas

#2785000
b111001011100001 aan
1aas

#2790000
0aas

#2795000
b100100100011 aan
1aas

#2800000
0aas

#2805000
b101101110111111 aan
1aas

#2810000
0aas

#2815000
b101100000110010 aan
1aas

#2820000
0aas

#2825000
b10100010101111 aan
1aas

#2830000
0aas

#2835000
b11110110101000 aan
1aas

#2840000
0aas

#2845000
b10001110011110 aan
1aas

#2850000
0aas

#2855000
b1101010001101 aan
1aas

#2860000
0aas

#2865000
b11010011111010 aan
1aas

#2870000
0aas

#2875000
b11101011111001 aan
1aas

#2880000
0aas

#2885000
b111000001010100 aan
1aas

#2890000
0aas

#2895000
b110010010101011 aan
1aas

#2900000
0aas

#2905000
b100101100011110 aan
1aas

#2910000
0aas

#2915000
b101101010001 aan
1aas

#2920000
0aas

#2925000
b111011001000101 aan
1aas

#2930000
0aas

#2935000
b110000000110011 aan
1aas

#2940000
0aas

#2945000
b101100110111010 aan
1aas

#2950000
0aas

#2955000
b110000000100010 aan
1aas

#2960000
0aas

#2965000
b110100100100111 aan
1aas

#2970000
0aas

#2975000
b101100111001110 aan
1aas

#2980000
0aas

#2985000
b1101100011 aan
1aas

#2990000
0aas

#2995000
b111011111111011 aan
1aas

#3000000
0aas

#3005000
b101101001011100 aan
1aas

#3010000
0aas

#3015000
b111011000101011 aan
1aas

#3020000
0aas

#3025000
b111110011001 aan
1aas

#3030000
0aas

#3035000
b1101110101111 aan
1aas

#3040000
0aas

#3045000
b101000101111111 aan
1aas

#3050000
0aas

#3055000
b11100001000111 aan
1aas

#3060000
0aas

#3065000
b110011111111001 aan
1aas

#3070000
0aas

#3075000
b111011010110100 aan
1aas

#3080000
0aas

#3085000
b101001100111101 aan
1aas

#3090000
0aas

#3095000
b11110011101011 aan
1aas

#3100000
0aas

#3105000
b111010110110101 aan
1aas

#3110000
0aas

#3115000
b100111011001001 aan
1aas

#3120000
0aas

#3125000
b100101001100110 aan
1aas

#3130000
0aas

#3135000
b100111101110110 aan
1aas

#3140000
0aas

#3145000
b111001101000010 aan
1aas

#3150000
0aas

#3155000
b101111011011011 aan
1aas

#3160000
0aas

#3165000
b11101000011 aan
1aas

#3170000
0aas

#3175000
b11101111011100 aan
1aas

#3180000
0aas

#3185000
b11001010000 aan
1aas

#3190000
0aas

#3195000
b101100100101010 aan
1aas

#3200000
0aas

#3205000
b100100100101011 aan
1aas

#3210000
0aas

#3215000
b111101111 aan
1aas

#3220000
0aas

#3225000
b11010111111111 aan
1aas

#3230000
0aas

#3235000
b101010010101000 aan
1aas

#3240000
0aas

#3245000
b11001010001 aan
1aas

#3250000
0aas

#3255000
b100110111011101 aan
1aas

#3260000
0aas

#3265000
b1000101010000 aan
1aas

#3270000
0aas

#3275000
b10100110100001 aan
1aas

#3280000
0aas

#3285000
b110010111100000 aan
1aas

#3290000
0aas

#3295000
b101100111111010 aan
1aas

#3300000
0aas

#3305000
b1100111011001 aan
1aas

#3310000
0aas

#3315000
b110100001 aan
1aas

#3320000
0aas

#3325000
b10000001001010 aan
1aas

#3330000
0aas

#3335000
b1110111000000 aan
1aas

#3340000
0aas

#3345000
b100011010111110 aan
1aas

#3350000
0aas

#3355000
b1111010010011 aan
1aas

#3360000
0aas

#3365000
b11100111011100 aan
1aas

#3370000
0aas

#3375000
b110111000010100 aan
1aas

#3380000
0aas

#3385000
b11001111011100 aan
1aas

#3390000
0aas

#3395000
b1110100100110 aan
1aas

#3400000
0aas

#3405000
b100101110010111 aan
1aas

#3410000
0aas

#3415000
b111001011001011 aan
1aas

#3420000
0aas

#3425000
b101000101000111 aan
1aas

#3430000
0aas

#3435000
b11011001110101 aan
1aas

#3440000
0aas

#3445000
b100111000111011 aan
1aas

#3450000
0aas

#3455000
b1010101101101 aan
1aas

#3460000
0aas

#3465000
b10011011110111 aan
1aas

#3470000
0aas

#3475000
b100010011100110 aan
1aas

#3480000
0aas

#3485000
b1101110100100 aan
1aas

#3490000
0aas

#3495000
b100110100111001 aan
1aas

#3500000
0aas

#3505000
b10111110 aan
1aas

#3510000
0aas

#3515000
b1000001010010 aan
1aas

#3520000
0aas

#3525000
b1101001011001 aan
1aas

#3530000
0aas

#3535000
b110110001101001 aan
1aas

#3540000
0aas

#3545000
b1011001111101 aan
1aas

#3550000
0aas

#3555000
b10010101100111 aan
1aas

#3560000
0aas

#3565000
b100011101100011 aan
1aas

#3570000
0aas

#3575000
b101001010110111 aan
1aas

#3580000
0aas

#3585000
b10010011000 aan
1aas

#3590000
0aas

#3595000
b11110001001011 aan
1aas

#3600000
0aas

#3605000
b1001001011011 aan
1aas

#3610000
0aas

#3615000
b10100100011111 aan
1aas

#3620000
0aas

#3625000
b10100010100111 aan
1aas

#3630000
0aas

#3635000
b111001010000010 aan
1aas

#3640000
0aas

#3645000
b11111111000111 aan
1aas

#3650000
0aas

#3655000
b101011100111 aan
1aas

#3660000
0aas

#3665000
b11011001101111 aan
1aas

#3670000
0aas

#3675000
b101110000010010 aan
1aas

#3680000
0aas

#3685000
b100010110100111 aan
1aas

#3690000
0aas

#3695000
b11111111011101 aan
1aas

#3700000
0aas

#3705000
b1100100010000 aan
1aas

#3710000
0aas

#3715000
b10111111100101 aan
1aas

#3720000
0aas

#3725000
b101011001001010 aan
1aas

#3730000
0aas

#3735000
b110101111100000 aan
1aas

#3740000
0aas

#3745000
b111010001111111 aan
1aas

#3750000
0aas

#3755000
b1001101101110 aan
1aas

#3760000
0aas

#3765000
b110101100110 aan
1aas

#3770000
0aas

#3775000
b101011110100001 aan
1aas

#3780000
0aas

#3785000
b101101100110111 aan
1aas

#3790000
0aas

#3795000
b100100110010000 aan
1aas

#3800000
0aas

#3805000
b111001101101000 aan
1aas

#3810000
0aas

#3815000
b11011010101011 aan
1aas

#3820000
0aas

#3825000
b110000101100 aan
1aas

#3830000
0aas

#3835000
b100100010111011 aan
1aas

#3840000
0aas

#3845000
b100101100001001 aan
1aas

#3850000
0aas

#3855000
b111010100001 aan
1aas

#3860000
0aas

#3865000
b100110100000001 aan
1aas

#3870000
0aas

#3875000
b111110001011000 aan
1aas

#3880000
0aas

#3885000
b101110100100010 aan
1aas

#3890000
0aas

#3895000
b10001111000111 aan
1aas

#3900000
0aas

#3905000
b11010001111010 aan
1aas

#3910000
0aas

#3915000
b11010101100111 aan
1aas

#3920000
0aas

#3925000
b11011011000001 aan
1aas

#3930000
0aas

#3935000
b111011000100 aan
1aas

#3940000
0aas

#3945000
b111100100110100 aan
1aas

#3950000
0aas

#3955000
b111001100110 aan
1aas

#3960000
0aas

#3965000
b110101111100 aan
1aas

#3970000
0aas

#3975000
b101111110100111 aan
1aas

#3980000
0aas

#3985000
b1100010010100 aan
1aas

#3990000
0aas

#3995000
b100011001110101 aan
1aas

#4000000
0aas

#4005000
b11111000000101 aan
1aas

#4010000
0aas

#4015000
b111001000100111 aan
1aas

#4020000
0aas

#4025000
b110100111111101 aan
1aas

#4030000
0aas

#4035000
b101011110111001 aan
1aas

#4040000
0aas

#4045000
b1100011111111 aan
1aas

#4050000
0aas

#4055000
b101011100101111 aan
1aas

#4060000
0aas

#4065000
b111001001000110 aan
1aas

#4070000
0aas

#4075000
b100110011111110 aan
1aas

#4080000
0aas

#4085000
b111001000010000 aan
1aas

#4090000
0aas

#4095000
b111011110011010 aan
1aas

#4100000
0aas

#4105000
b101101101011 aan
1aas

#4110000
0aas

#4115000
b1101010100000 aan
1aas

#4120000
0aas

#4125000
b10010100111000 aan
1aas

#4130000
0aas

#4135000
b101010000111011 aan
1aas

#4140000
0aas

#4145000
b11010010000010 aan
1aas

#4150000
0aas

#4155000
b111111010101011 aan
1aas

#4160000
0aas

#4165000
b11001100001 aan
1aas

#4170000
0aas

#4175000
b11100100000 aan
1aas

#4180000
0aas

#4185000
b1110111110001 aan
1aas

#4190000
0aas

#4195000
b10110001000001 aan
1aas

#4200000
0aas

#4205000
b110111100110111 aan
1aas

#4210000
0aas

#4215000
b110101000010111 aan
1aas

#4220000
0aas

#4225000
b100010111011111 aan
1aas

#4230000
0aas

#4235000
b100011000111100 aan
1aas

#4240000
0aas

#4245000
b101111100111001 aan
1aas

#4250000
0aas

#4255000
b11001110010 aan
1aas

#4260000
0aas

#4265000
b11100011101000 aan
1aas

#4270000
0aas

#4275000
b110110100010101 aan
1aas

#4280000
0aas

#4285000
b110001000010000 aan
1aas

#4290000
0aas

#4295000
b11001000001000 aan
1aas

#4300000
0aas

#4305000
b100101100010101 aan
1aas

#4310000
0aas

#4315000
b110010000000101 aan
1aas

#4320000
0aas

#4325000
b11000000100000 aan
1aas

#4330000
0aas

#4335000
b111110101111100 aan
1aas

#4340000
0aas

#4345000
b101110100001011 aan
1aas

#4350000
0aas

#4355000
b1000101101001 aan
1aas

#4360000
0aas

#4365000
b11110101011110 aan
1aas

#4370000
0aas

#4375000
b101011111000010 aan
1aas

#4380000
0aas

#4385000
b110000010 aan
1aas

#4390000
0aas

#4395000
b101111001101011 aan
1aas

#4400000
0aas

#4405000
b10101001100001 aan
1aas

#4410000
0aas

#4415000
b101011011110 aan
1aas

#4420000
0aas

#4425000
b1011011111001 aan
1aas

#4430000
0aas

#4435000
b11100111011111 aan
1aas

#4440000
0aas

#4445000
b100101110111011 aan
1aas

#4450000
0aas

#4455000
b111010111101111 aan
1aas

#4460000
0aas

#4465000
b10100110101000 aan
1aas

#4470000
0aas

#4475000
b100001001101011 aan
1aas

#4480000
0aas

#4485000
b11101110001001 aan
1aas

#4490000
0aas

#4495000
b10100001101101 aan
1aas

#4500000
0aas

#4505000
b11000110110111 aan
1aas

#4510000
0aas

#4515000
b101101111101011 aan
1aas

#4520000
0aas

#4525000
b10100101001001 aan
1aas

#4530000
0aas

#4535000
b100001010101111 aan
1aas

#4540000
0aas

#4545000
b110101101 aan
1aas

#4550000
0aas

#4555000
b11010000010011 aan
1aas

#4560000
0aas

#4565000
b101101111101100 aan
1aas

#4570000
0aas

#4575000
b11111110110000 aan
1aas

#4580000
0aas

#4585000
b111100100101011 aan
1aas

#4590000
0aas

#4595000
b111101001010110 aan
1aas

#4600000
0aas

#4605000
b1101000101100 aan
1aas

#4610000
0aas

#4615000
b110000010010 aan
1aas

#4620000
0aas

#4625000
b100111111011010 aan
1aas

#4630000
0aas

#4635000
b100111100000111 aan
1aas

#4640000
0aas

#4645000
b110110100100000 aan
1aas

#4650000
0aas

#4655000
b111001100011 aan
1aas

#4660000
0aas

#4665000
b110010100010 aan
1aas

#4670000
0aas

#4675000
b10110110111111 aan
1aas

#4680000
0aas

#4685000
b111000100001110 aan
1aas

#4690000
0aas

#4695000
b10010100000 aan
1aas

#4700000
0aas

#4705000
b111110100011101 aan
1aas

#4710000
0aas

#4715000
b101011011111110 aan
1aas

#4720000
0aas

#4725000
b10100010000000 aan
1aas

#4730000
0aas

#4735000
b101101011110111 aan
1aas

#4740000
0aas

#4745000
b100000101001011 aan
1aas

#4750000
0aas

#4755000
b111110100010101 aan
1aas

#4760000
0aas

#4765000
b10110011010 aan
1aas

#4770000
0aas

#4775000
b101111111010001 aan
1aas

#4780000
0aas

#4785000
b11111110000111 aan
1aas

#4790000
0aas

#4795000
b11100001000011 aan
1aas

#4800000
0aas

#4805000
b1110110101010 aan
1aas

#4810000
0aas

#4815000
b111100100010000 aan
1aas

#4820000
0aas

#4825000
b1010010111001 aan
1aas

#4830000
0aas

#4835000
b11000011110 aan
1aas

#4840000
0aas

#4845000
b11101100000001 aan
1aas

#4850000
0aas

#4855000
b11111010010101 aan
1aas

#4860000
0aas

#4865000
b101010011001110 aan
1aas

#4870000
0aas

#4875000
b101100000110100 aan
1aas

#4880000
0aas

#4885000
b100000100000010 aan
1aas

#4890000
0aas

#4895000
b1111000000110 aan
1aas

#4900000
0aas

#4905000
b10111101100101 aan
1aas

#4910000
0aas

#4915000
b111010111110011 aan
1aas

#4920000
0aas

#4925000
b1011001111000 aan
1aas

#4930000
0aas

#4935000
b110101111001110 aan
1aas

#4940000
0aas

#4945000
b100110011001011 aan
1aas

#4950000
0aas

#4955000
b11010111000110 aan
1aas

#4960000
0aas

#4965000
b101000101101 aan
1aas

#4970000
0aas

#4975000
b10101100101 aan
1aas

#4980000
0aas

#4985000
b111011100101010 aan
1aas

#4990000
0aas

#4995000
b101000110000001 aan
1aas

#5000000
0aas

#5005000
b110010110111000 aan
1aas

#5010000
0aas

#5015000
b110100011010001 aan
1aas

#5020000
0aas

#5025000
b110001111111101 aan
1aas

#5030000
0aas

#5035000
b101100111111111 aan
1aas

#5040000
0aas

#5045000
b10001010010110 aan
1aas

#5050000
0aas

#5055000
b110010101101101 aan
1aas

#5060000
0aas

#5065000
b11000111000111 aan
1aas

#5070000
0aas

#5075000
b111000001001 aan
1aas

#5080000
0aas

#5085000
b111010101111100 aan
1aas

#5090000
0aas

#5095000
b100100111101001 aan
1aas

#5100000
0aas

#5105000
b110111000000101 aan
1aas

#5110000
0aas

