SystemC_Project/CSP/CSPTOP.vcd
$comment
Copyright (C) 1991-2009 Altera Corporation
Your use of Altera Corporation's design tools, logic functions 
and other software and tools, and its AMPP partner logic 
functions, and any output files from any of the foregoing 
(including device programming or simulation files), and any 
associated documentation or information are expressly subject 
to the terms and conditions of the Altera Program License 
Subscription Agreement, Altera MegaCore Function License 
Agreement, or other applicable license agreement, including, 
without limitation, that your use is for the sole purpose of 
programming logic devices manufactured by Altera and sold by 
Altera or its authorized distributors.  Please refer to the 
applicable agreement for further details.
$end

$date 
  09/12/2013 08:59:47 
$end
$version 
 QUARTUS_VCD_EXPORT 1.0 
$end
$timescale
  1 ps
$end
$scope module SystemC $end
$var reg 2 ! CSPSelmux_2[1:0] $end
$var reg 3 " CSPSelmux_1[2:0] $end
$var reg 4 # W[3:0] $end
$var reg 32 $ i[31:0] $end
$var reg 8 % MUX[7:0] $end
$var reg 8 & CSPIR_out[7:0] $end
$var reg 1 ' flush_rx $end
$var reg 1 ( Rxoff $end
$var reg 1 ) Rxon $end
$var reg 1 * flush_tx $end
$var reg 1 + Txoff $end
$var reg 1 , ackset $end
$var reg 1 - Txoncca $end
$var reg 1 . Txon $end
$var reg 1 / Txcaln $end
$var reg 1 0 MEM_Read $end
$var reg 16 1 Random_in[15:0] $end
$var reg 8 2 RFST_in[7:0] $end
$var reg 1 3 CCA_Active $end
$var reg 1 4 Tx_Active $end
$var reg 1 5 Rst $end
$var reg 1 6 Clk $end
$upscope $end
$enddefinitions $end
#0
$dumpvars
b1 !
b0 "
b1000 #
b10000010000000000 $
b0 %
b0 &
0'
0(
0)
0*
0+
0,
0-
0.
0/
00
b0 1
b0 2
03
04
15
06
$end
#10000
05
#15000
b11100000 %
b11100000 2
16
#20000
06
#25000
b0 %
b11100000 &
b100010010100001 1
b0 2
16
#30000
b11 !
b111 "
b1110110000000000 $
b11111111 %
06
#35000
b1 #
b100010101001010 1
16
#40000
b0 !
b1 "
b11000000000000 $
b0 %
10
06
#45000
b10 #
b10111010 %
b111010001111 1
16
#50000
b111 "
b111110000000000000 $
00
06
#55000
b100 #
b10111010 &
b1011101110100 1
16
#60000
b1 !
b1 "
b1000000010010000000000 $
b1 %
06
#65000
b1000 #
b11101101011011 1
16
#70000
06
#75000
b1 #
b110111010100 1
16
#80000
b0 !
b11000000000000 $
b10111010 %
10
06
#85000
b10 #
b10111011 %
b10111000001101 1
16
#90000
b111 "
b111110000000000000 $
00
06
#95000
b100 #
b10111011 &
b100111111101000 1
16
#100000
b1 !
b110 "
b1100011000000000 $
b0 %
06
#105000
b100011001110111 1
16
#110000
06
#115000
b1000 #
b110001101011001 1
16
#120000
06
#125000
b1 #
b110000110111 1
16
#130000
b0 !
b1 "
b11000000000000 $
b10111011 %
10
06
#135000
b10 #
b100010 %
b100111101111111 1
16
#140000
b111 "
b111110000000000000 $
00
06
#145000
b100 #
b100010 &
b101011010101111 1
16
#150000
b11 !
b1110110000000000 $
b11111111 %
06
#155000
b1000 #
b110110111111001 1
16
#160000
06
#165000
b1 #
b110111011 1
16
#170000
b0 !
b1 "
b11000000000000 $
b100010 %
10
06
#175000
b10 #
b11000001 %
b101100100000010 1
16
#180000
b111 "
b111110000000000000 $
00
06
#185000
b100 #
b11000001 &
b111110100111000 1
16
#190000
b11 !
b1110110000000100 $
b11111111 %
1)
06
#195000
b1000 #
b10110101101000 1
16
#200000
06
#205000
b1 #
b11010110010010 1
16
#210000
b0 !
b1 "
b11000000000000 $
b11000001 %
0)
10
06
#215000
b10 #
b10111000 %
b100010101010101 1
16
#220000
b111 "
b111110000000000000 $
00
06
#225000
b100 #
b10111000 &
b10111110101 1
16
#230000
b11 !
b1110111000000000 $
b11111111 %
06
#235000
b111101001001100 1
16
#240000
06
#245000
b10100011010101 1
16
#250000
06
#255000
b10111111111101 1
16
#260000
06
#265000
b111101011 1
16
#270000
06
#275000
b11011011100110 1
16
#280000
06
#285000
b11010011010011 1
16
#290000
06
#295000
b100110011011111 1
16
#300000
06
#305000
b101010111110101 1
16
#310000
06
#315000
b111001011110101 1
16
#320000
06
#325000
b10111101100000 1
16
#330000
06
#335000
b100101101001010 1
16
#340000
06
#345000
b10000110111000 1
16
#350000
06
#355000
b11011010111 1
16
#360000
06
#365000
b10100101110000 1
16
#370000
06
#375000
b110101000111000 1
16
#380000
06
#385000
b1001011011010 1
16
#390000
06
#395000
b110100111110010 1
16
#400000
06
#405000
b111101111100100 1
16
#410000
06
#415000
b10000111010001 1
16
#420000
06
#425000
b1000 #
b111100001101111 1
16
#430000
06
#435000
b1 #
b100100001010010 1
16
#440000
b0 !
b1 "
b11000000000000 $
b10111000 %
10
06
#445000
b10 #
b1010000 %
b1011010100011 1
16
#450000
b111 "
b111110000000000000 $
00
06
#455000
b100 #
b1010000 &
b11000110001 1
16
#460000
b11 !
b1110110000000000 $
b11111111 %
06
#465000
b1000 #
b10101010110100 1
16
#470000
06
#475000
b1 #
b1101110010011 1
16
#480000
b0 !
b1 "
b11000000000000 $
b1010000 %
10
06
#485000
b10 #
b10111000 %
b100010111101101 1
16
#490000
b111 "
b111110000000000000 $
00
06
#495000
b100 #
b10111000 &
b100011101101011 1
16
#500000
b11 !
b1110111000000000 $
b11111111 %
06
#505000
b1101100000000 1
16
#510000
06
#515000
b100101100000010 1
16
#520000
06
#525000
b110000111101100 1
16
#530000
06
#535000
b111001011001110 1
16
#540000
06
#545000
b1111111110111 1
16
#550000
06
#555000
b1011011111111 1
16
#560000
06
#565000
b1110010001100 1
16
#570000
06
#575000
b101100101100111 1
16
#580000
06
#585000
b101001000000001 1
16
#590000
06
#595000
b101001110100110 1
16
#600000
06
#605000
b110000110001101 1
16
#610000
06
#615000
b11111111000110 1
16
#620000
06
#625000
b101111111011 1
16
#630000
06
#635000
b11011010101110 1
16
#640000
06
#645000
b111110011010111 1
16
#650000
06
#655000
b11101100000101 1
16
#660000
06
#665000
b110010000101100 1
16
#670000
06
#675000
b11110010010000 1
16
#680000
06
#685000
b111101100001101 1
16
#690000
06
#695000
b1000 #
b101111100000111 1
16
#700000
06
#705000
b1 #
b11000101111010 1
16
#710000
b0 !
b1 "
b11000000000000 $
b10111000 %
10
06
#715000
b10 #
b110000 %
b110100011101100 1
16
#720000
b111 "
b111110000000000000 $
00
06
#725000
b100 #
b110000 &
b111100001100100 1
16
#730000
b11 !
b1110110000000000 $
b11111111 %
06
#735000
b1000 #
b10000111111110 1
16
#740000
06
#745000
b1 #
b111000011011101 1
16
#750000
b0 !
b1 "
b11000000000000 $
b110000 %
10
06
#755000
b10 #
b11000010 %
b110011000101001 1
16
#760000
b111 "
b111110000000000000 $
00
06
#765000
b100 #
b11000010 &
b101000110110110 1
16
#770000
b11 !
b1110110010000000 $
b11111111 %
1.
06
#775000
b1000 #
b1100100110000 1
16
#780000
06
#785000
b1 #
b1111100010101 1
16
#790000
b0 !
b1 "
b11000000000000 $
b11000010 %
0.
10
06
#795000
b10 #
b11000000 %
b100100001011101 1
16
#800000
b111 "
b111110000000000000 $
00
06
#805000
b100 #
b11000000 &
b110101111010010 1
16
#810000
b1 !
b0 "
b10000010000000000 $
b0 %
06
#815000
b0 &
b111001011111010 1
16
#820000
06
#825000
b101101010011000 1
16
#830000
06
#835000
b111011101101100 1
16
#840000
06
#845000
b10100010111 1
16
#850000
06
#855000
b101001000010101 1
16
#860000
06
#865000
b110000111001111 1
16
#870000
06
#875000
b10001110011 1
16
#880000
06
#885000
b100010101000001 1
16
#890000
06
#895000
b110111000011000 1
16
#900000
06
#905000
b100000110000001 1
16
#910000
06
#915000
b110111001100111 1
16
#920000
06
#925000
b111111110000010 1
16
#930000
06
#935000
b1110100111110 1
16
#940000
06
#945000
b100011110010000 1
16
#950000
06
#955000
b1100111111001 1
16
#960000
06
#965000
b101101011010101 1
16
#970000
06
#975000
b10101101101010 1
16
#980000
06
#985000
b110111100011 1
16
#990000
06
#995000
b10111101 1
16
#1000000
06
#1005000
b101010010001111 1
16
#1010000
06
#1015000
b10001001101000 1
16
#1020000
06
#1025000
b11000110100011 1
16
#1030000
06
#1035000
b101101110001100 1
16
#1040000
06
#1045000
b101000100110110 1
16
#1050000
06
#1055000
b110011101110110 1
16
#1060000
06
#1065000
b101010101010 1
16
#1070000
06
#1075000
b100110000100111 1
16
#1080000
06
#1085000
b10111110010111 1
16
#1090000
06
#1095000
b101001000000011 1
16
#1100000
06
#1105000
b111011100111000 1
16
#1110000
06
#1115000
b100101000011100 1
16
#1120000
06
#1125000
b1001000010011 1
16
#1130000
06
#1135000
b1111110110110 1
16
#1140000
06
#1145000
b111111101000 1
16
#1150000
06
#1155000
b101011011101110 1
16
#1160000
06
#1165000
b101001000111010 1
16
#1170000
06
#1175000
b110100110110010 1
16
#1180000
06
#1185000
b101011111100011 1
16
#1190000
06
#1195000
b11110101110000 1
16
#1200000
06
#1205000
b101001010011011 1
16
#1210000
06
#1215000
b111111100011001 1
16
#1220000
06
#1225000
b11110101010100 1
16
#1230000
06
#1235000
b110000001110010 1
16
#1240000
06
#1245000
b10001011011001 1
16
#1250000
06
#1255000
b100100011001110 1
16
#1260000
06
#1265000
b111111000011100 1
16
#1270000
06
#1275000
b101110010011111 1
16
#1280000
06
#1285000
b10101000000010 1
16
#1290000
06
#1295000
b1101010000000 1
16
#1300000
06
#1305000
b100010011000110 1
16
#1310000
06
#1315000
b110100110 1
16
#1320000
06
#1325000
b100101100011101 1
16
#1330000
06
#1335000
b1010011100100 1
16
#1340000
06
#1345000
b1000110111101 1
16
#1350000
06
#1355000
b110011010011000 1
16
#1360000
06
#1365000
b11100000000010 1
16
#1370000
06
#1375000
b111110101000001 1
16
#1380000
06
#1385000
b100010010111100 1
16
#1390000
06
#1395000
b1110110010001 1
16
#1400000
06
#1405000
b110011001101111 1
16
#1410000
06
#1415000
b10111000110010 1
16
#1420000
06
#1425000
b101101010000111 1
16
#1430000
06
#1435000
b100101010011011 1
16
#1440000
06
#1445000
b101101101010111 1
16
#1450000
06
#1455000
b10110101000 1
16
#1460000
06
#1465000
b11001011011001 1
16
#1470000
06
#1475000
b10000111001111 1
16
#1480000
06
#1485000
b100000001111101 1
16
#1490000
06
#1495000
b111010000101110 1
16
#1500000
06
#1505000
b111001010011101 1
16
#1510000
06
#1515000
b1000010111110 1
16
#1520000
06
#1525000
b111100001000010 1
16
#1530000
06
#1535000
b1000101110001 1
16
#1540000
06
#1545000
b101011001100000 1
16
#1550000
06
#1555000
b1011100001111 1
16
#1560000
06
#1565000
b10001110111011 1
16
#1570000
06
#1575000
b101100111111111 1
16
#1580000
06
#1585000
b100100000111 1
16
#1590000
06
#1595000
b1001001101001 1
16
#1600000
06
#1605000
b100111100000111 1
16
#1610000
06
#1615000
b111101001001111 1
16
#1620000
06
#1625000
b101001010111101 1
16
#1630000
06
#1635000
b110010011 1
16
#1640000
06
#1645000
b11011111100000 1
16
#1650000
06
#1655000
b100101100000010 1
16
#1660000
06
#1665000
b11010000110000 1
16
#1670000
06
#1675000
b1011011001 1
16
#1680000
06
#1685000
b110001001101111 1
16
#1690000
06
#1695000
b110001001101000 1
16
#1700000
06
#1705000
b100000111111101 1
16
#1710000
06
#1715000
b1000110110010 1
16
#1720000
06
#1725000
b111000001100101 1
16
#1730000
06
#1735000
b101111101000110 1
16
#1740000
06
#1745000
b101010001101000 1
16
#1750000
06
#1755000
b100011110100001 1
16
#1760000
06
#1765000
b110111001000111 1
16
#1770000
06
#1775000
b101000011010110 1
16
#1780000
06
#1785000
b101111101010001 1
16
#1790000
06
#1795000
b10010001011001 1
16
#1800000
06
#1805000
b101100001001 1
16
#1810000
06
#1815000
b110000000010000 1
16
#1820000
06
#1825000
b11001100100 1
16
#1830000
06
#1835000
b10000100100100 1
16
#1840000
06
#1845000
b110110111011111 1
16
#1850000
06
#1855000
b1111000101000 1
16
#1860000
06
#1865000
b100000110001111 1
16
#1870000
06
#1875000
b1001110000101 1
16
#1880000
06
#1885000
b1111001010000 1
16
#1890000
06
#1895000
b1110001011000 1
16
#1900000
06
#1905000
b10010110111001 1
16
#1910000
06
#1915000
b10001100011100 1
16
#1920000
06
#1925000
b11001010001100 1
16
#1930000
06
#1935000
b11000011011111 1
16
#1940000
06
#1945000
b10010110110001 1
16
#1950000
06
#1955000
b101011011001011 1
16
#1960000
06
#1965000
b11011111111111 1
16
#1970000
06
#1975000
b110101001010 1
16
#1980000
06
#1985000
b101111101100100 1
16
#1990000
06
#1995000
b111110100010111 1
16
#2000000
06
#2005000
b101000100110 1
16
#2010000
06
#2015000
b100111110010 1
16
#2020000
06
#2025000
b100100101010100 1
16
#2030000
06
#2035000
b111001111010001 1
16
#2040000
06
#2045000
b101110100010 1
16
#2050000
06
#2055000
b100101011000110 1
16
#2060000
06
#2065000
b101010001000101 1
16
#2070000
06
#2075000
b1001011110101 1
16
#2080000
06
#2085000
b111010110001011 1
16
#2090000
06
#2095000
b10000101001010 1
16
#2100000
06
#2105000
b101010100111001 1
16
#2110000
06
#2115000
b11111011010010 1
16
#2120000
06
#2125000
b11000100000110 1
16
#2130000
06
#2135000
b100111111100000 1
16
#2140000
06
#2145000
b100101110011111 1
16
#2150000
06
#2155000
b110010101101011 1
16
#2160000
06
#2165000
b110111100011010 1
16
#2170000
06
#2175000
b1001001000111 1
16
#2180000
06
#2185000
b101011111001000 1
16
#2190000
06
#2195000
b110101100011110 1
16
#2200000
06
#2205000
b111001010111111 1
16
#2210000
06
#2215000
b111101100001 1
16
#2220000
06
#2225000
b111010110011010 1
16
#2230000
06
#2235000
b100101010000011 1
16
#2240000
06
#2245000
b100000100111000 1
16
#2250000
06
#2255000
b1100000111001 1
16
#2260000
06
#2265000
b100111110001000 1
16
#2270000
06
#2275000
b110101110010111 1
16
#2280000
06
#2285000
b10110010100011 1
16
#2290000
06
#2295000
b101100001000100 1
16
#2300000
06
#2305000
b11110111000010 1
16
#2310000
06
#2315000
b111011000011010 1
16
#2320000
06
#2325000
b110110011001111 1
16
#2330000
06
#2335000
b101101011100111 1
16
#2340000
06
#2345000
b100010110101000 1
16
#2350000
06
#2355000
b10001100110101 1
16
#2360000
06
#2365000
b11101001001101 1
16
#2370000
06
#2375000
b101000111010 1
16
#2380000
06
#2385000
b10110110000101 1
16
#2390000
06
#2395000
b101001001100000 1
16
#2400000
06
#2405000
b1111111001010 1
16
#2410000
06
#2415000
b101100001100 1
16
#2420000
06
#2425000
b111100001111010 1
16
#2430000
06
#2435000
b110010110000011 1
16
#2440000
06
#2445000
b111010110011100 1
16
#2450000
06
#2455000
b1101000100111 1
16
#2460000
06
#2465000
b101111010111000 1
16
#2470000
06
#2475000
b10100001011011 1
16
#2480000
06
#2485000
b11101110011010 1
16
#2490000
06
#2495000
b100111011010100 1
16
#2500000
06
#2505000
b1010111110010 1
16
#2510000
06
#2515000
b100011100100000 1
16
#2520000
06
#2525000
b100010100110001 1
16
#2530000
06
#2535000
b110011010100010 1
16
#2540000
06
#2545000
b111111000010011 1
16
#2550000
06
#2555000
b1100001100101 1
16
#2560000
06
#2565000
b110101110110100 1
16
#2570000
06
#2575000
b111111001100100 1
16
#2580000
06
#2585000
b11000101100 1
16
#2590000
06
#2595000
b11111000111111 1
16
#2600000
06
#2605000
b11101011110100 1
16
#2610000
06
#2615000
b101110001111001 1
16
#2620000
06
#2625000
b101110110110000 1
16
#2630000
06
#2635000
b110001010101001 1
16
#2640000
06
#2645000
b100110000010001 1
16
#2650000
06
#2655000
b11000001010000 1
16
#2660000
06
#2665000
b100010111100011 1
16
#2670000
06
#2675000
b1001100100111 1
16
#2680000
06
#2685000
b100001010001111 1
16
#2690000
06
#2695000
b110101100101010 1
16
#2700000
06
#2705000
b1011110010000 1
16
#2710000
06
#2715000
b111111110101010 1
16
#2720000
06
#2725000
b1111110101100 1
16
#2730000
06
#2735000
b1011000100010 1
16
#2740000
06
#2745000
b101000011111010 1
16
#2750000
06
#2755000
b10000010110100 1
16
#2760000
06
#2765000
b101111111110001 1
16
#2770000
06
#2775000
b100100101101011 1
16
#2780000
06
#2785000
b100000000010110 1
16
#2790000
06
#2795000
b100010111100 1
16
#2800000
06
#2805000
b1011100001000 1
16
#2810000
06
#2815000
b10100011011010 1
16
#2820000
06
#2825000
b1110011110111 1
16
#2830000
06
#2835000
b110010011010100 1
16
#2840000
06
#2845000
b111110111001101 1
16
#2850000
06
#2855000
b100110100100 1
16
#2860000
06
#2865000
b10100010001010 1
16
#2870000
06
#2875000
b111000010001001 1
16
#2880000
06
#2885000
b10011010100111 1
16
#2890000
06
#2895000
b10010101101000 1
16
#2900000
06
#2905000
b10001110000011 1
16
#2910000
06
#2915000
b110000100001011 1
16
#2920000
06
#2925000
b100110000011001 1
16
#2930000
06
#2935000
b111111001110000 1
16
#2940000
06
#2945000
b11000110010111 1
16
#2950000
06
#2955000
b101110001110 1
16
#2960000
06
#2965000
b110110110010100 1
16
#2970000
06
#2975000
b101100100110100 1
16
#2980000
06
#2985000
b111110011101100 1
16
#2990000
06
#2995000
b100101011101111 1
16
#3000000
06
#3005000
b10111010010000 1
16
#3010000
06
#3015000
b110111100011111 1
16
#3020000
06
#3025000
b10110111001110 1
16
#3030000
06
#3035000
b110100010011011 1
16
#3040000
06
#3045000
b10101111011011 1
16
#3050000
06
#3055000
b11111010010110 1
16
#3060000
06
#3065000
b101010100011 1
16
#3070000
06
#3075000
b110010101101 1
16
#3080000
06
#3085000
b11101100110000 1
16
#3090000
06
#3095000
b1110000110111 1
16
#3100000
06
#3105000
b101010000100001 1
16
#3110000
06
#3115000
b111100101010110 1
16
#3120000
06
#3125000
b100100100001011 1
16
#3130000
06
#3135000
b110100101011110 1
16
#3140000
06
#3145000
b11000110111110 1
16
#3150000
06
#3155000
b1010110000010 1
16
#3160000
06
#3165000
b100100010111100 1
16
#3170000
06
#3175000
b1001111101110 1
16
#3180000
06
#3185000
b100001001101000 1
16
#3190000
06
#3195000
b101010111000 1
16
#3200000
06
#3205000
b110101010111010 1
16
#3210000
06
#3215000
b100001101001110 1
16
#3220000
06
#3225000
b10010101110111 1
16
#3230000
06
#3235000
b111101001000010 1
16
#3240000
06
#3245000
b110100111011 1
16
#3250000
06
#3255000
b101011010110001 1
16
#3260000
06
#3265000
b111111100000 1
16
#3270000
06
#3275000
b110110001111 1
16
#3280000
06
#3285000
b1101100000001 1
16
#3290000
06
#3295000
b1100010011011 1
16
#3300000
06
#3305000
b100000110101011 1
16
#3310000
06
#3315000
b110010111010101 1
16
#3320000
06
#3325000
b100110001110111 1
16
#3330000
06
#3335000
b100101110100001 1
16
#3340000
06
#3345000
b110111110100111 1
16
#3350000
06
#3355000
b10111011111010 1
16
#3360000
06
#3365000
b111111011111100 1
16
#3370000
06
#3375000
b111010001110000 1
16
#3380000
06
#3385000
b111010101011100 1
16
#3390000
06
#3395000
b101100110110101 1
16
#3400000
06
#3405000
b1011001111111 1
16
#3410000
06
#3415000
b10100010000 1
16
#3420000
06
#3425000
b110001101000001 1
16
#3430000
06
#3435000
b100000011110001 1
16
#3440000
06
#3445000
b1110101001100 1
16
#3450000
06
#3455000
b100110101101010 1
16
#3460000
06
#3465000
b11110100101111 1
16
#3470000
06
#3475000
b11111001110010 1
16
#3480000
06
#3485000
b1011000100101 1
16
#3490000
06
#3495000
b101010100001000 1
16
#3500000
06
#3505000
b111110100010110 1
16
#3510000
06
#3515000
b111001010111010 1
16
#3520000
06
#3525000
b11010010010101 1
16
#3530000
06
#3535000
b1000011101 1
16
#3540000
06
#3545000
b10110111101111 1
16
#3550000
06
#3555000
b100010000101110 1
16
#3560000
06
#3565000
b110111110000001 1
16
#3570000
06
#3575000
b11000111000101 1
16
#3580000
06
#3585000
b11001011110001 1
16
#3590000
06
#3595000
b101100101110101 1
16
#3600000
06
#3605000
b10001000000000 1
16
#3610000
06
#3615000
b10010110001101 1
16
#3620000
06
#3625000
b111100001000 1
16
#3630000
06
#3635000
b1001100100001 1
16
#3640000
06
#3645000
b10111001101101 1
16
#3650000
06
#3655000
b110101000110110 1
16
#3660000
06
#3665000
b100000010000011 1
16
#3670000
06
#3675000
b100100010010001 1
16
#3680000
06
#3685000
b101011110111010 1
16
#3690000
06
#3695000
b1101110110110 1
16
#3700000
06
#3705000
b10100001100 1
16
#3710000
06
#3715000
b100110000010101 1
16
#3720000
06
#3725000
b100010100000110 1
16
#3730000
06
#3735000
b10101010000000 1
16
#3740000
06
#3745000
b1100111011110 1
16
#3750000
06
#3755000
b111101001010100 1
16
#3760000
06
#3765000
b110001101110010 1
16
#3770000
06
#3775000
b11000000101 1
16
#3780000
06
#3785000
b100110000110010 1
16
#3790000
06
#3795000
b101100011101011 1
16
#3800000
06
#3805000
b1101000110001 1
16
#3810000
06
#3815000
b101000001111011 1
16
#3820000
06
#3825000
b110110111111010 1
16
#3830000
06
#3835000
b100001010111 1
16
#3840000
06
#3845000
b10011011111 1
16
#3850000
06
#3855000
b111111111011101 1
16
#3860000
06
#3865000
b1011010010 1
16
#3870000
06
#3875000
b110100010101 1
16
#3880000
06
#3885000
b10100000010100 1
16
#3890000
06
#3895000
b1000000110011 1
16
#3900000
06
#3905000
b11100100110100 1
16
#3910000
06
#3915000
b11010000000111 1
16
#3920000
06
#3925000
b101010000111000 1
16
#3930000
06
#3935000
b10101100010011 1
16
#3940000
06
#3945000
b1111101011 1
16
#3950000
06
#3955000
b1011000011010 1
16
#3960000
06
#3965000
b10101010011001 1
16
#3970000
06
#3975000
b110100001101000 1
16
#3980000
06
#3985000
b110011111001010 1
16
#3990000
06
#3995000
b111111100100110 1
16
#4000000
06
#4005000
b111100010111010 1
16
#4010000
06
#4015000
b110001110010 1
16
#4020000
06
#4025000
b101000110011101 1
16
#4030000
06
#4035000
b11110000010110 1
16
#4040000
06
#4045000
b101110111101111 1
16
#4050000
06
#4055000
b110011100001110 1
16
#4060000
06
#4065000
b100001100000 1
16
#4070000
06
#4075000
b1010001001000 1
16
#4080000
06
#4085000
b110111100100110 1
16
#4090000
06
#4095000
b11100000111000 1
16
#4100000
06
#4105000
b111110101111 1
16
#4110000
06
#4115000
b111001000110111 1
16
#4120000
06
#4125000
b100110100001000 1
16
#4130000
06
#4135000
b11110111001110 1
16
#4140000
06
#4145000
b111001111110 1
16
#4150000
06
#4155000
b111111101010111 1
16
#4160000
06
#4165000
b110000001000001 1
16
#4170000
06
#4175000
b100111010010110 1
16
#4180000
06
#4185000
b111000001010 1
16
#4190000
06
#4195000
b11011101000000 1
16
#4200000
06
#4205000
b11000000011011 1
16
#4210000
06
#4215000
b10011010000011 1
16
#4220000
06
#4225000
b10010100001111 1
16
#4230000
06
#4235000
b11011000001111 1
16
#4240000
06
#4245000
b11101010010 1
16
#4250000
06
#4255000
b100100000110100 1
16
#4260000
06
#4265000
b110001100111100 1
16
#4270000
06
#4275000
b100011000001001 1
16
#4280000
06
#4285000
b101101100100100 1
16
#4290000
06
#4295000
b1011110111110 1
16
#4300000
06
#4305000
b1000011100100 1
16
#4310000
06
#4315000
b111000010000010 1
16
#4320000
06
#4325000
b10100010100111 1
16
#4330000
06
#4335000
b1001010101011 1
16
#4340000
06
#4345000
b1011011110110 1
16
#4350000
06
#4355000
b1010111111110 1
16
#4360000
06
#4365000
b11110001011111 1
16
#4370000
06
#4375000
b100100101000011 1
16
#4380000
06
#4385000
b10001100101111 1
16
#4390000
06
#4395000
b101000110010101 1
16
#4400000
06
#4405000
b1100000010000 1
16
#4410000
06
#4415000
b111110100001010 1
16
#4420000
06
#4425000
b101110010001110 1
16
#4430000
06
#4435000
b10101110011100 1
16
#4440000
06
#4445000
b110101011010001 1
16
#4450000
06
#4455000
b100010001001 1
16
#4460000
06
#4465000
b11110000001001 1
16
#4470000
06
#4475000
b101111110000001 1
16
#4480000
06
#4485000
b100111101100010 1
16
#4490000
06
#4495000
b111010001010001 1
16
#4500000
06
#4505000
b101110101111110 1
16
#4510000
06
#4515000
b11100011110111 1
16
#4520000
06
#4525000
b100010010111111 1
16
#4530000
06
#4535000
b101110100111110 1
16
#4540000
06
#4545000
b101110011101100 1
16
#4550000
06
#4555000
b100110001010011 1
16
#4560000
06
#4565000
b1010011110101 1
16
#4570000
06
#4575000
b111111111001 1
16
#4580000
06
#4585000
b1001111100011 1
16
#4590000
06
#4595000
b111000110110 1
16
#4600000
06
#4605000
b1111000110101 1
16
#4610000
06
#4615000
b111110111000000 1
16
#4620000
06
#4625000
b100101100111001 1
16
#4630000
06
#4635000
b111001101101 1
16
#4640000
06
#4645000
b11001000100111 1
16
#4650000
06
#4655000
b110111001101010 1
16
#4660000
06
#4665000
b11010011111111 1
16
#4670000
06
#4675000
b101101000010101 1
16
#4680000
06
#4685000
b111111110000000 1
16
#4690000
06
#4695000
b1001110100101 1
16
#4700000
06
#4705000
b100001010110011 1
16
#4710000
06
#4715000
b100100100000011 1
16
#4720000
06
#4725000
b11100111010111 1
16
#4730000
06
#4735000
b110000110000011 1
16
#4740000
06
#4745000
b10101110110111 1
16
#4750000
06
#4755000
b11101001100011 1
16
#4760000
06
#4765000
b111001110110101 1
16
#4770000
06
#4775000
b101000000110101 1
16
#4780000
06
#4785000
b11100000000010 1
16
#4790000
06
#4795000
b10010011110 1
16
#4800000
06
#4805000
b101111011101011 1
16
#4810000
06
#4815000
b110101100010110 1
16
#4820000
06
#4825000
b10001100010110 1
16
#4830000
06
#4835000
b1110010000010 1
16
#4840000
06
#4845000
b110011100101000 1
16
#4850000
06
#4855000
b101000011101011 1
16
#4860000
06
#4865000
b10101100110010 1
16
#4870000
06
#4875000
b11011110011101 1
16
#4880000
06
#4885000
b101101011001010 1
16
#4890000
06
#4895000
b100101101000 1
16
#4900000
06
#4905000
b10000011001000 1
16
#4910000
06
#4915000
b110110111101001 1
16
#4920000
06
#4925000
b1010111110101 1
16
#4930000
06
#4935000
b101001111110111 1
16
#4940000
06
#4945000
b101000110001 1
16
#4950000
06
#4955000
b1111010101111 1
16
#4960000
06
#4965000
b110001111100010 1
16
#4970000
06
#4975000
b101001110110110 1
16
#4980000
06
#4985000
b10111110100000 1
16
#4990000
06
#4995000
b1110010100101 1
16
#5000000
06
#5005000
b101001111010 1
16
#5010000
06
#5015000
b11110010111110 1
16
#5020000
06
#5025000
b10001101010101 1
16
#5030000
06
#5035000
b110010101011001 1
16
#5040000
06
#5045000
b11010000100100 1
16
#5050000
06
#5055000
b110011010101011 1
16
#5060000
06
#5065000
b1101000010011 1
16
#5070000
06
#5075000
b110011111010011 1
16
#5080000
06
#5085000
b10101111011011 1
16
#5090000
06
#5095000
b110100001011001 1
16
#5100000
06
#5105000
b10011111010011 1
16
#5110000
06
#5115000
b1111001110110 1
16
#5120000
06
#5125000
b1111110000011 1
16
#5130000
06
#5135000
b10000011101011 1
16
#5140000
06
#5145000
b11010010111010 1
16
#5150000
06
#5155000
b101000 1
16
#5160000
06
#5165000
b101110001111101 1
16
#5170000
06
#5175000
b101001000010010 1
16
#5180000
06
#5185000
b11111001001001 1
16
#5190000
06
#5195000
b110010110011 1
16
#5200000
06
#5205000
b11101001111001 1
16
#5210000
06
#5215000
b10111110001100 1
16
#5220000
06
#5225000
b11100011010100 1
16
#5230000
06
#5235000
b111100001101010 1
16
#5240000
06
#5245000
b10100010001011 1
16
#5250000
06
#5255000
b11111101010 1
16
#5260000
06
#5265000
b10010100110101 1
16
#5270000
06
#5275000
b11101100001111 1
16
#5280000
06
#5285000
b1000010000010 1
16
#5290000
06
#5295000
b110101010010111 1
16
#5300000
06
#5305000
b10111011000001 1
16
#5310000
06
#5315000
b10111110100 1
16
#5320000
06
#5325000
b10001110101 1
16
#5330000
06
#5335000
b110111100010110 1
16
#5340000
06
#5345000
b110010101111011 1
16
#5350000
06
#5355000
b110010101100001 1
16
#5360000
06
#5365000
b110101010011110 1
16
#5370000
06
#5375000
b110001011 1
16
#5380000
06
#5385000
b110100010001000 1
16
#5390000
06
#5395000
b1000100110110 1
16
#5400000
06
#5405000
b1101101101011 1
16
#5410000
06
#5415000
b101100001111101 1
16
#5420000
06
#5425000
b1010011100011 1
16
#5430000
06
#5435000
b11000011010001 1
16
#5440000
06
#5445000
b10010111010011 1
16
#5450000
06
#5455000
b111011111011010 1
16
#5460000
06
#5465000
b110001010010 1
16
#5470000
06
#5475000
b1011000110010 1
16
#5480000
06
#5485000
b10110111100111 1
16
#5490000
06
#5495000
b110010100111011 1
16
#5500000
06
#5505000
b10100010011001 1
16
#5510000
06
#5515000
b11010001011101 1
16
#5520000
06
#5525000
b1100110101001 1
16
#5530000
06
#5535000
b111000101101010 1
16
#5540000
06
#5545000
b10111011101101 1
16
#5550000
06
#5555000
b101010100000000 1
16
#5560000
06
#5565000
b100000 1
16
#5570000
06
#5575000
b11101100100010 1
16
#5580000
06
#5585000
b101011110101011 1
16
#5590000
06
#5595000
b101000101010110 1
16
#5600000
06
#5605000
b111010101100 1
16
#5610000
06
#5615000
b100111100010101 1
16
#5620000
06
#5625000
b111111001001010 1
16
#5630000
06
#5635000
b101001001001011 1
16
#5640000
06
#5645000
b101100010011000 1
16
#5650000
06
#5655000
b100100110011 1
16
#5660000
06
#5665000
b110110001111 1
16
#5670000
06
#5675000
b101101111100001 1
16
#5680000
06
#5685000
b100010011101110 1
16
#5690000
06
#5695000
b1101100101010 1
16
#5700000
06
#5705000
b111101111111111 1
16
#5710000
06
#5715000
b10011111010010 1
16
#5720000
06
#5725000
b111010001111 1
16
#5730000
06
#5735000
b101110000101001 1
16
#5740000
06
#5745000
b110110010011010 1
16
#5750000
06
#5755000
b1001101110111 1
16
#5760000
06
#5765000
b101010000010 1
16
#5770000
06
#5775000
b100010111101010 1
16
#5780000
06
#5785000
b100011111000110 1
16
#5790000
06
#5795000
b10010011101000 1
16
#5800000
06
#5805000
b10100010001101 1
16
#5810000
06
