SystemC_Project/CSP/CSPY.vcd
$comment
Copyright (C) 1991-2009 Altera Corporation
Your use of Altera Corporation's design tools, logic functions 
and other software and tools, and its AMPP partner logic 
functions, and any output files from any of the foregoing 
(including device programming or simulation files), and any 
associated documentation or information are expressly subject 
to the terms and conditions of the Altera Program License 
Subscription Agreement, Altera MegaCore Function License 
Agreement, or other applicable license agreement, including, 
without limitation, that your use is for the sole purpose of 
programming logic devices manufactured by Altera and sold by 
Altera or its authorized distributors.  Please refer to the 
applicable agreement for further details.
$end

$date 
  08/20/2013 15:14:45 
$end
$version 
 QUARTUS_VCD_EXPORT 1.0 
$end
$timescale
  1 ps
$end
$scope module SystemC $end
$var reg 8 ! CSPY_out[7:0] $end
$var reg 8 " CSPY_in[7:0] $end
$var reg 1 # Decy $end
$var reg 1 $ Incy $end
$var reg 1 % Encspy $end
$var reg 1 & Rst $end
$var reg 1 ' Clk $end
$upscope $end
$enddefinitions $end
#0
$dumpvars
b0 !
b0 "
0#
0$
0%
1&
0'
$end
#10000
0&
1'
#15000
b11111011 "
0'
#20000
1'
#25000
b1010010 "
1#
1$
0'
#30000
b1 !
1'
#35000
b1101110 "
1%
0'
#40000
b1101110 !
1'
#45000
b1110110 "
0#
0%
0'
#50000
b1101111 !
1'
#55000
b1100011 "
1#
0$
1%
0'
#60000
b1100011 !
1'
#65000
b10000 "
0#
0%
0'
#70000
1'
#75000
b10010100 "
1#
0'
#80000
b1100010 !
1'
#85000
b11001111 "
1%
0'
#90000
b11001111 !
1'
#95000
b1000011 "
0'
#100000
b1000011 !
1'
#105000
b100101 "
0%
0'
#110000
b1000010 !
1'
#115000
b10110100 "
1$
1%
0'
#120000
b10110100 !
1'
#125000
b11001010 "
0#
0'
#130000
b11001010 !
1'
#135000
b10110001 "
1#
0'
#140000
b10110001 !
1'
#145000
b110111 "
0#
0$
0%
0'
#150000
1'
#155000
b101 "
1#
0'
#160000
b10110000 !
1'
#165000
b101100 "
0#
1$
0'
#170000
b10110001 !
1'
#175000
b1 "
1#
1%
0'
#180000
b1 !
1'
#185000
b101011 "
0#
0$
0%
0'
#190000
1'
#195000
b11111010 "
1$
0'
#200000
b10 !
1'
#205000
b11111011 "
0'
#210000
b11 !
1'
#215000
b11001001 "
0$
0'
#220000
1'
#225000
b100101 "
1#
1$
0'
#230000
b100 !
1'
#235000
b1001001 "
1%
0'
#240000
b1001001 !
1'
#245000
b1111010 "
0$
0%
0'
#250000
b1001000 !
1'
#255000
b11011101 "
1$
1%
0'
#260000
b11011101 !
1'
#265000
b10001011 "
0#
0$
0'
#270000
b10001011 !
1'
#275000
b11100111 "
1#
1$
0%
0'
#280000
b10001100 !
1'
#285000
b110000 "
0'
#290000
b10001101 !
1'
#295000
b1010010 "
0#
0'
#300000
b10001110 !
1'
#305000
b10 "
1#
1%
0'
#310000
b10 !
1'
#315000
b1001 "
0#
0$
0%
0'
#320000
1'
#325000
b11100000 "
1#
1$
0'
#330000
b11 !
1'
#335000
b1111110 "
0$
0'
#340000
b10 !
1'
#345000
b1101110 "
0#
1$
0'
#350000
b11 !
1'
#355000
b100100 "
1%
0'
#360000
b100100 !
1'
#365000
b10010001 "
1#
0'
#370000
b10010001 !
1'
#375000
b11110101 "
0%
0'
#380000
b10010010 !
1'
#385000
0$
0'
#390000
b10010001 !
1'
#395000
b11101101 "
0#
1%
0'
#400000
b11101101 !
1'
#405000
b10000111 "
0%
0'
#410000
1'
#415000
b10001101 "
0'
#420000
1'
#425000
b11111011 "
1$
1%
0'
#430000
b11111011 !
1'
#435000
b1011001 "
0$
0%
0'
#440000
1'
#445000
b1000111 "
1$
1%
0'
#450000
b1000111 !
1'
#455000
b1011010 "
0%
0'
#460000
b1001000 !
1'
#465000
b100110 "
1#
1%
0'
#470000
b100110 !
1'
#475000
b1100 "
0$
0%
0'
#480000
b100101 !
1'
#485000
b110 "
0#
1$
0'
#490000
b100110 !
1'
