SystemC_Project/CSP/CSPZ.vcd
$comment
Copyright (C) 1991-2009 Altera Corporation
Your use of Altera Corporation's design tools, logic functions 
and other software and tools, and its AMPP partner logic 
functions, and any output files from any of the foregoing 
(including device programming or simulation files), and any 
associated documentation or information are expressly subject 
to the terms and conditions of the Altera Program License 
Subscription Agreement, Altera MegaCore Function License 
Agreement, or other applicable license agreement, including, 
without limitation, that your use is for the sole purpose of 
programming logic devices manufactured by Altera and sold by 
Altera or its authorized distributors.  Please refer to the 
applicable agreement for further details.
$end

$date 
  08/20/2013 15:13:46 
$end
$version 
 QUARTUS_VCD_EXPORT 1.0 
$end
$timescale
  1 ps
$end
$scope module SystemC $end
$var reg 8 ! CSPZ_out[7:0] $end
$var reg 8 " CSPZ_in[7:0] $end
$var reg 1 # Decz $end
$var reg 1 $ Encspz $end
$var reg 1 % Rst $end
$var reg 1 & Clk $end
$upscope $end
$enddefinitions $end
#0
$dumpvars
b0 !
b0 "
0#
0$
1%
0&
$end
#10000
0%
1&
#15000
b11011011 "
0&
#20000
1&
#25000
b10110000 "
1$
0&
#30000
b10110000 !
1&
#35000
b10010010 "
1#
0$
0&
#40000
b10101111 !
1&
#45000
b111001 "
1$
0&
#50000
b111001 !
1&
#55000
b10110011 "
0#
0&
#60000
b10110011 !
1&
#65000
b11111100 "
1#
0&
#70000
b11111100 !
1&
#75000
b11001110 "
0#
0&
#80000
b11001110 !
1&
#85000
b10111010 "
0&
#90000
b10111010 !
1&
#95000
b1111000 "
0$
0&
#100000
1&
#105000
b1111100 "
0&
#110000
1&
#115000
b11001001 "
1$
0&
#120000
b11001001 !
1&
#125000
b1010 "
0&
#130000
b1010 !
1&
#135000
b11011111 "
1#
0&
#140000
b11011111 !
1&
#145000
b1110101 "
0#
0$
0&
#150000
1&
#155000
b1011001 "
0&
#160000
1&
#165000
b10001110 "
1#
1$
0&
#170000
b10001110 !
1&
#175000
b11011101 "
0$
0&
#180000
b10001101 !
1&
#185000
b1101100 "
0&
#190000
b10001100 !
1&
#195000
b10010010 "
1$
0&
#200000
b10010010 !
1&
#205000
b11101010 "
0&
#210000
b11101010 !
1&
#215000
b10100110 "
0&
#220000
b10100110 !
1&
#225000
b100110 "
0#
0$
0&
#230000
1&
#235000
b11001010 "
1#
1$
0&
#240000
b11001010 !
1&
#245000
b100 "
0#
0$
0&
#250000
1&
#255000
b10110001 "
1$
0&
#260000
b10110001 !
1&
#265000
b10101001 "
1#
0&
#270000
b10101001 !
1&
#275000
b10010100 "
0#
0&
#280000
b10010100 !
1&
#285000
b0 "
0$
0&
#290000
1&
#295000
b10110001 "
1$
0&
#300000
b10110001 !
1&
#305000
b111000 "
1#
0$
0&
#310000
b10110000 !
1&
#315000
b11001000 "
1$
0&
#320000
b11001000 !
1&
#325000
b1000100 "
0$
0&
#330000
b11000111 !
1&
#335000
b10011100 "
0#
0&
#340000
1&
#345000
b1011010 "
1#
0&
#350000
b11000110 !
1&
#355000
b1111000 "
1$
0&
#360000
b1111000 !
1&
#365000
b1110101 "
0$
0&
#370000
b1110111 !
1&
#375000
b10101000 "
0#
1$
0&
#380000
b10101000 !
1&
#385000
b11010011 "
0$
0&
#390000
1&
#395000
b11111011 "
0&
#400000
1&
#405000
b1110111 "
1#
1$
0&
#410000
b1110111 !
1&
#415000
b1001000 "
0#
0&
#420000
b1001000 !
1&
#425000
b10101000 "
1#
0&
#430000
b10101000 !
1&
#435000
b11100101 "
0#
0&
#440000
b11100101 !
1&
#445000
b1110000 "
0&
#450000
b1110000 !
1&
#455000
b110001 "
0&
#460000
b110001 !
1&
#465000
b11110 "
1#
0$
0&
#470000
b110000 !
1&
#475000
b1100 "
0#
0&
#480000
1&
#485000
b10000101 "
0&
